  0%|          | 0/10 [00:00<?, ?it/s] 10%|█         | 1/10 [00:00<00:05,  1.60it/s] 20%|██        | 2/10 [00:01<00:04,  1.60it/s] 30%|███       | 3/10 [00:01<00:04,  1.63it/s] 40%|████      | 4/10 [00:02<00:03,  1.65it/s] 50%|█████     | 5/10 [00:03<00:02,  1.68it/s] 60%|██████    | 6/10 [00:03<00:02,  1.69it/s] 70%|███████   | 7/10 [00:04<00:01,  1.71it/s] 80%|████████  | 8/10 [00:04<00:01,  1.70it/s] 90%|█████████ | 9/10 [00:05<00:00,  1.68it/s]100%|██████████| 10/10 [00:06<00:00,  1.66it/s]100%|██████████| 10/10 [00:06<00:00,  1.67it/s]
  0%|          | 0/40 [00:00<?, ?it/s] 12%|█▎        | 5/40 [00:00<00:00, 40.77it/s] 25%|██▌       | 10/40 [00:00<00:00, 39.20it/s] 35%|███▌      | 14/40 [00:00<00:00, 39.09it/s] 45%|████▌     | 18/40 [00:00<00:00, 38.87it/s] 57%|█████▊    | 23/40 [00:00<00:00, 39.93it/s] 68%|██████▊   | 27/40 [00:00<00:00, 38.42it/s] 80%|████████  | 32/40 [00:00<00:00, 39.73it/s] 90%|█████████ | 36/40 [00:00<00:00, 37.61it/s]100%|██████████| 40/40 [00:01<00:00, 39.01it/s]
  0%|          | 0/10 [00:00<?, ?it/s] 10%|█         | 1/10 [00:00<00:05,  1.60it/s] 20%|██        | 2/10 [00:01<00:04,  1.61it/s] 30%|███       | 3/10 [00:01<00:04,  1.67it/s] 40%|████      | 4/10 [00:02<00:03,  1.68it/s] 50%|█████     | 5/10 [00:03<00:02,  1.68it/s] 60%|██████    | 6/10 [00:03<00:02,  1.66it/s] 70%|███████   | 7/10 [00:04<00:01,  1.64it/s] 80%|████████  | 8/10 [00:04<00:01,  1.68it/s] 90%|█████████ | 9/10 [00:05<00:00,  1.71it/s]100%|██████████| 10/10 [00:05<00:00,  1.72it/s]100%|██████████| 10/10 [00:05<00:00,  1.68it/s]
  0%|          | 0/40 [00:00<?, ?it/s] 12%|█▎        | 5/40 [00:00<00:00, 42.84it/s] 25%|██▌       | 10/40 [00:00<00:00, 39.73it/s] 35%|███▌      | 14/40 [00:00<00:00, 38.67it/s] 48%|████▊     | 19/40 [00:00<00:00, 40.74it/s] 60%|██████    | 24/40 [00:00<00:00, 42.35it/s] 72%|███████▎  | 29/40 [00:00<00:00, 41.72it/s] 85%|████████▌ | 34/40 [00:00<00:00, 41.65it/s] 98%|█████████▊| 39/40 [00:00<00:00, 42.84it/s]100%|██████████| 40/40 [00:00<00:00, 42.05it/s]
  0%|          | 0/10 [00:00<?, ?it/s] 10%|█         | 1/10 [00:00<00:05,  1.63it/s] 20%|██        | 2/10 [00:01<00:04,  1.62it/s] 30%|███       | 3/10 [00:01<00:04,  1.69it/s] 40%|████      | 4/10 [00:02<00:03,  1.68it/s] 50%|█████     | 5/10 [00:03<00:03,  1.65it/s] 60%|██████    | 6/10 [00:03<00:02,  1.63it/s] 70%|███████   | 7/10 [00:04<00:01,  1.65it/s] 80%|████████  | 8/10 [00:04<00:01,  1.66it/s] 90%|█████████ | 9/10 [00:05<00:00,  1.68it/s]100%|██████████| 10/10 [00:06<00:00,  1.67it/s]100%|██████████| 10/10 [00:06<00:00,  1.66it/s]
  0%|          | 0/40 [00:00<?, ?it/s] 12%|█▎        | 5/40 [00:00<00:00, 47.22it/s] 25%|██▌       | 10/40 [00:00<00:00, 44.16it/s] 38%|███▊      | 15/40 [00:00<00:00, 42.05it/s] 50%|█████     | 20/40 [00:00<00:00, 44.09it/s] 62%|██████▎   | 25/40 [00:00<00:00, 43.70it/s] 75%|███████▌  | 30/40 [00:00<00:00, 42.67it/s] 88%|████████▊ | 35/40 [00:00<00:00, 42.39it/s]100%|██████████| 40/40 [00:00<00:00, 43.83it/s]
  0%|          | 0/10 [00:00<?, ?it/s] 10%|█         | 1/10 [00:00<00:05,  1.70it/s] 20%|██        | 2/10 [00:01<00:04,  1.72it/s] 30%|███       | 3/10 [00:01<00:04,  1.70it/s] 40%|████      | 4/10 [00:02<00:03,  1.71it/s] 50%|█████     | 5/10 [00:02<00:02,  1.70it/s] 60%|██████    | 6/10 [00:03<00:02,  1.69it/s] 70%|███████   | 7/10 [00:04<00:01,  1.72it/s] 80%|████████  | 8/10 [00:04<00:01,  1.70it/s] 90%|█████████ | 9/10 [00:05<00:00,  1.67it/s]100%|██████████| 10/10 [00:05<00:00,  1.66it/s]100%|██████████| 10/10 [00:05<00:00,  1.68it/s]
  0%|          | 0/40 [00:00<?, ?it/s] 12%|█▎        | 5/40 [00:00<00:00, 47.04it/s] 25%|██▌       | 10/40 [00:00<00:00, 43.64it/s] 38%|███▊      | 15/40 [00:00<00:00, 42.16it/s] 50%|█████     | 20/40 [00:00<00:00, 44.11it/s] 62%|██████▎   | 25/40 [00:00<00:00, 43.95it/s] 75%|███████▌  | 30/40 [00:00<00:00, 42.81it/s] 88%|████████▊ | 35/40 [00:00<00:00, 42.63it/s]100%|██████████| 40/40 [00:00<00:00, 43.96it/s]
  0%|          | 0/10 [00:00<?, ?it/s] 10%|█         | 1/10 [00:00<00:05,  1.58it/s] 20%|██        | 2/10 [00:01<00:04,  1.67it/s] 30%|███       | 3/10 [00:01<00:04,  1.67it/s] 40%|████      | 4/10 [00:02<00:03,  1.69it/s] 50%|█████     | 5/10 [00:02<00:02,  1.73it/s] 60%|██████    | 6/10 [00:03<00:02,  1.68it/s] 70%|███████   | 7/10 [00:04<00:01,  1.68it/s] 80%|████████  | 8/10 [00:04<00:01,  1.69it/s] 90%|█████████ | 9/10 [00:05<00:00,  1.68it/s]100%|██████████| 10/10 [00:05<00:00,  1.67it/s]100%|██████████| 10/10 [00:05<00:00,  1.68it/s]
  0%|          | 0/40 [00:00<?, ?it/s] 12%|█▎        | 5/40 [00:00<00:00, 45.15it/s] 25%|██▌       | 10/40 [00:00<00:00, 42.69it/s] 38%|███▊      | 15/40 [00:00<00:00, 40.61it/s] 50%|█████     | 20/40 [00:00<00:00, 42.92it/s] 62%|██████▎   | 25/40 [00:00<00:00, 42.86it/s] 75%|███████▌  | 30/40 [00:00<00:00, 41.74it/s] 88%|████████▊ | 35/40 [00:00<00:00, 41.64it/s]100%|██████████| 40/40 [00:00<00:00, 43.76it/s]100%|██████████| 40/40 [00:00<00:00, 42.81it/s]
  0%|          | 0/10 [00:00<?, ?it/s] 10%|█         | 1/10 [00:13<02:03, 13.68s/it] 20%|██        | 2/10 [01:09<05:07, 38.50s/it] 30%|███       | 3/10 [01:23<03:09, 27.12s/it] 40%|████      | 4/10 [01:43<02:26, 24.46s/it] 50%|█████     | 5/10 [01:56<01:42, 20.41s/it] 60%|██████    | 6/10 [02:05<01:05, 16.34s/it] 70%|███████   | 7/10 [02:26<00:54, 18.08s/it] 80%|████████  | 8/10 [02:42<00:34, 17.17s/it] 90%|█████████ | 9/10 [03:22<00:24, 24.49s/it]100%|██████████| 10/10 [04:00<00:00, 28.67s/it]100%|██████████| 10/10 [04:00<00:00, 24.07s/it]
  0%|          | 0/40 [00:00<?, ?it/s] 10%|█         | 4/40 [00:00<00:03, 11.07it/s] 10%|█         | 4/40 [00:13<00:03, 11.07it/s] 18%|█▊        | 7/40 [00:13<01:14,  2.25s/it] 20%|██        | 8/40 [00:17<01:27,  2.75s/it] 30%|███       | 12/40 [00:33<01:33,  3.36s/it] 35%|███▌      | 14/40 [00:41<01:33,  3.60s/it] 40%|████      | 16/40 [00:47<01:21,  3.40s/it] 48%|████▊     | 19/40 [00:55<01:04,  3.08s/it] 50%|█████     | 20/40 [00:59<01:03,  3.18s/it] 55%|█████▌    | 22/40 [01:06<00:58,  3.27s/it] 57%|█████▊    | 23/40 [01:13<01:09,  4.06s/it] 62%|██████▎   | 25/40 [01:24<01:07,  4.51s/it] 65%|██████▌   | 26/40 [01:31<01:09,  4.95s/it] 72%|███████▎  | 29/40 [01:40<00:45,  4.11s/it] 75%|███████▌  | 30/40 [01:55<00:59,  5.95s/it] 85%|████████▌ | 34/40 [01:55<00:17,  2.97s/it] 90%|█████████ | 36/40 [02:03<00:13,  3.31s/it] 92%|█████████▎| 37/40 [02:08<00:10,  3.49s/it]100%|██████████| 40/40 [02:14<00:00,  2.91s/it]100%|██████████| 40/40 [02:14<00:00,  3.36s/it]
  0%|          | 0/10 [00:00<?, ?it/s] 10%|█         | 1/10 [00:52<07:54, 52.74s/it] 20%|██        | 2/10 [01:35<06:15, 46.96s/it] 30%|███       | 3/10 [01:43<03:22, 28.95s/it] 40%|████      | 4/10 [02:06<02:40, 26.67s/it] 50%|█████     | 5/10 [02:55<02:54, 34.81s/it] 60%|██████    | 6/10 [03:13<01:56, 29.19s/it] 70%|███████   | 7/10 [03:56<01:40, 33.45s/it] 80%|████████  | 8/10 [04:09<00:54, 27.09s/it] 90%|█████████ | 9/10 [05:17<00:39, 39.83s/it]100%|██████████| 10/10 [05:23<00:00, 29.53s/it]100%|██████████| 10/10 [05:23<00:00, 32.39s/it]
  0%|          | 0/40 [00:00<?, ?it/s]  8%|▊         | 3/40 [00:00<00:06,  5.96it/s] 10%|█         | 4/40 [00:00<00:07,  4.54it/s] 18%|█▊        | 7/40 [00:12<01:18,  2.37s/it] 20%|██        | 8/40 [00:20<01:54,  3.56s/it] 25%|██▌       | 10/40 [00:20<01:08,  2.29s/it] 30%|███       | 12/40 [00:21<00:44,  1.60s/it] 35%|███▌      | 14/40 [00:22<00:29,  1.13s/it] 38%|███▊      | 15/40 [00:22<00:24,  1.02it/s] 40%|████      | 16/40 [00:30<00:58,  2.43s/it] 52%|█████▎    | 21/40 [00:30<00:19,  1.02s/it] 55%|█████▌    | 22/40 [00:36<00:32,  1.79s/it] 60%|██████    | 24/40 [00:44<00:38,  2.44s/it] 62%|██████▎   | 25/40 [00:59<01:07,  4.51s/it] 65%|██████▌   | 26/40 [00:59<00:51,  3.69s/it] 72%|███████▎  | 29/40 [01:17<00:52,  4.75s/it] 75%|███████▌  | 30/40 [01:17<00:39,  3.97s/it] 85%|████████▌ | 34/40 [01:18<00:12,  2.02s/it] 90%|█████████ | 36/40 [01:25<00:09,  2.44s/it]100%|██████████| 40/40 [01:25<00:00,  2.14s/it]
  0%|          | 0/10 [00:00<?, ?it/s] 10%|█         | 1/10 [00:12<01:51, 12.41s/it] 20%|██        | 2/10 [00:35<02:30, 18.78s/it] 30%|███       | 3/10 [01:13<03:13, 27.59s/it] 40%|████      | 4/10 [01:46<02:56, 29.45s/it] 50%|█████     | 5/10 [02:13<02:22, 28.60s/it] 60%|██████    | 6/10 [02:39<01:50, 27.68s/it] 70%|███████   | 7/10 [03:20<01:36, 32.20s/it] 80%|████████  | 8/10 [03:41<00:57, 28.69s/it] 90%|█████████ | 9/10 [04:12<00:29, 29.39s/it]100%|██████████| 10/10 [04:45<00:00, 30.38s/it]100%|██████████| 10/10 [04:45<00:00, 28.52s/it]
  0%|          | 0/40 [00:00<?, ?it/s]  8%|▊         | 3/40 [00:00<00:07,  4.68it/s] 10%|█         | 4/40 [00:00<00:08,  4.04it/s] 15%|█▌        | 6/40 [00:01<00:07,  4.34it/s] 18%|█▊        | 7/40 [00:20<02:47,  5.09s/it] 20%|██        | 8/40 [00:28<03:05,  5.80s/it] 25%|██▌       | 10/40 [00:28<01:41,  3.38s/it] 28%|██▊       | 11/40 [00:29<01:17,  2.68s/it] 30%|███       | 12/40 [00:29<00:59,  2.13s/it] 35%|███▌      | 14/40 [00:30<00:34,  1.32s/it] 38%|███▊      | 15/40 [00:30<00:27,  1.09s/it] 40%|████      | 16/40 [00:38<01:05,  2.72s/it] 48%|████▊     | 19/40 [00:58<01:40,  4.77s/it] 50%|█████     | 20/40 [01:04<01:39,  4.97s/it] 52%|█████▎    | 21/40 [01:04<01:16,  4.05s/it] 55%|█████▌    | 22/40 [01:15<01:43,  5.74s/it] 60%|██████    | 24/40 [01:25<01:24,  5.30s/it] 62%|██████▎   | 25/40 [01:25<01:04,  4.27s/it] 65%|██████▌   | 26/40 [01:26<00:47,  3.37s/it] 70%|███████   | 28/40 [01:36<00:47,  3.94s/it] 72%|███████▎  | 29/40 [01:36<00:35,  3.19s/it] 75%|███████▌  | 30/40 [01:37<00:25,  2.52s/it] 82%|████████▎ | 33/40 [01:37<00:09,  1.34s/it] 85%|████████▌ | 34/40 [01:38<00:06,  1.16s/it] 90%|█████████ | 36/40 [01:46<00:09,  2.31s/it] 92%|█████████▎| 37/40 [01:56<00:11,  3.83s/it]100%|██████████| 40/40 [02:02<00:00,  2.89s/it]100%|██████████| 40/40 [02:02<00:00,  3.05s/it]
  0%|          | 0/10 [00:00<?, ?it/s] 10%|█         | 1/10 [00:31<04:44, 31.59s/it] 20%|██        | 2/10 [01:20<05:34, 41.82s/it] 30%|███       | 3/10 [01:33<03:18, 28.41s/it] 40%|████      | 4/10 [01:54<02:34, 25.81s/it] 50%|█████     | 5/10 [02:18<02:04, 24.85s/it] 60%|██████    | 6/10 [02:46<01:44, 26.23s/it] 70%|███████   | 7/10 [03:19<01:25, 28.47s/it] 80%|████████  | 8/10 [03:38<00:50, 25.42s/it] 90%|█████████ | 9/10 [03:57<00:23, 23.40s/it]100%|██████████| 10/10 [04:19<00:00, 22.94s/it]100%|██████████| 10/10 [04:19<00:00, 25.97s/it]
  0%|          | 0/40 [00:00<?, ?it/s] 10%|█         | 4/40 [00:00<00:03, 10.91it/s] 10%|█         | 4/40 [00:23<00:03, 10.91it/s] 18%|█▊        | 7/40 [00:23<02:13,  4.03s/it] 20%|██        | 8/40 [00:32<02:39,  4.97s/it] 25%|██▌       | 10/40 [00:49<03:10,  6.34s/it] 30%|███       | 12/40 [00:50<02:00,  4.31s/it] 35%|███▌      | 14/40 [00:51<01:17,  2.98s/it] 38%|███▊      | 15/40 [00:51<01:02,  2.50s/it] 40%|████      | 16/40 [00:59<01:28,  3.67s/it] 50%|█████     | 20/40 [01:05<00:49,  2.45s/it] 52%|█████▎    | 21/40 [01:05<00:40,  2.14s/it] 55%|█████▌    | 22/40 [01:16<01:06,  3.71s/it] 60%|██████    | 24/40 [01:27<01:09,  4.31s/it] 62%|██████▎   | 25/40 [01:44<01:42,  6.85s/it] 65%|██████▌   | 26/40 [01:44<01:16,  5.43s/it] 72%|███████▎  | 29/40 [02:05<01:07,  6.18s/it] 75%|███████▌  | 30/40 [02:06<00:51,  5.12s/it] 85%|████████▌ | 34/40 [02:06<00:14,  2.48s/it] 90%|█████████ | 36/40 [02:15<00:12,  3.08s/it] 92%|█████████▎| 37/40 [02:26<00:13,  4.36s/it]100%|██████████| 40/40 [02:26<00:00,  3.66s/it]
  0%|          | 0/10 [00:00<?, ?it/s] 10%|█         | 1/10 [00:26<03:54, 26.05s/it] 20%|██        | 2/10 [01:05<04:31, 33.94s/it] 30%|███       | 3/10 [01:38<03:54, 33.57s/it] 40%|████      | 4/10 [02:23<03:49, 38.21s/it] 50%|█████     | 5/10 [02:46<02:41, 32.39s/it] 60%|██████    | 6/10 [03:21<02:14, 33.60s/it] 70%|███████   | 7/10 [04:08<01:53, 37.71s/it] 80%|████████  | 8/10 [04:51<01:18, 39.41s/it] 90%|█████████ | 9/10 [05:31<00:39, 39.54s/it]100%|██████████| 10/10 [06:14<00:00, 40.76s/it]100%|██████████| 10/10 [06:14<00:00, 37.45s/it]
  0%|          | 0/40 [00:00<?, ?it/s]  8%|▊         | 3/40 [00:01<00:15,  2.44it/s] 10%|█         | 4/40 [00:01<00:15,  2.32it/s] 15%|█▌        | 6/40 [00:02<00:11,  2.95it/s] 18%|█▊        | 7/40 [00:19<02:31,  4.59s/it] 20%|██        | 8/40 [00:43<05:11,  9.74s/it] 25%|██▌       | 10/40 [00:43<02:48,  5.63s/it] 30%|███       | 12/40 [00:44<01:40,  3.58s/it] 35%|███▌      | 14/40 [00:44<01:02,  2.41s/it] 38%|███▊      | 15/40 [00:45<00:50,  2.02s/it] 40%|████      | 16/40 [00:59<01:56,  4.84s/it] 48%|████▊     | 19/40 [01:20<02:04,  5.91s/it] 50%|█████     | 20/40 [01:28<02:03,  6.19s/it] 52%|█████▎    | 21/40 [01:28<01:35,  5.01s/it] 55%|█████▌    | 22/40 [01:50<02:37,  8.77s/it] 57%|█████▊    | 23/40 [02:08<03:10, 11.22s/it] 60%|██████    | 24/40 [02:18<02:53, 10.85s/it] 62%|██████▎   | 25/40 [02:19<02:01,  8.08s/it] 65%|██████▌   | 26/40 [02:20<01:28,  6.34s/it] 68%|██████▊   | 27/40 [02:22<01:05,  5.03s/it] 72%|███████▎  | 29/40 [02:23<00:31,  2.90s/it] 75%|███████▌  | 30/40 [02:23<00:22,  2.29s/it] 82%|████████▎ | 33/40 [02:24<00:08,  1.22s/it] 85%|████████▌ | 34/40 [02:24<00:06,  1.07s/it] 90%|█████████ | 36/40 [02:33<00:09,  2.32s/it] 92%|█████████▎| 37/40 [02:44<00:11,  4.00s/it] 98%|█████████▊| 39/40 [02:52<00:04,  4.07s/it]100%|██████████| 40/40 [03:03<00:00,  5.35s/it]100%|██████████| 40/40 [03:03<00:00,  4.58s/it]
  0%|          | 0/10 [00:00<?, ?it/s] 10%|█         | 1/10 [00:43<06:32, 43.57s/it] 20%|██        | 2/10 [00:54<03:15, 24.38s/it] 30%|███       | 3/10 [01:19<02:51, 24.57s/it] 40%|████      | 4/10 [01:53<02:49, 28.27s/it] 50%|█████     | 5/10 [02:11<02:02, 24.57s/it] 60%|██████    | 6/10 [03:04<02:17, 34.36s/it] 70%|███████   | 7/10 [03:41<01:45, 35.31s/it] 80%|████████  | 8/10 [03:57<00:58, 29.01s/it] 90%|█████████ | 9/10 [05:22<00:46, 46.60s/it]100%|██████████| 10/10 [06:01<00:00, 44.05s/it]100%|██████████| 10/10 [06:01<00:00, 36.10s/it]
  0%|          | 0/40 [00:00<?, ?it/s]  8%|▊         | 3/40 [00:00<00:06,  5.86it/s] 10%|█         | 4/40 [00:00<00:08,  4.37it/s] 15%|█▌        | 6/40 [00:01<00:06,  4.97it/s] 18%|█▊        | 7/40 [00:21<02:57,  5.38s/it] 20%|██        | 8/40 [00:35<04:00,  7.53s/it] 25%|██▌       | 10/40 [00:35<02:11,  4.39s/it] 28%|██▊       | 11/40 [00:36<01:40,  3.45s/it] 30%|███       | 12/40 [00:36<01:15,  2.71s/it] 35%|███▌      | 14/40 [00:37<00:43,  1.68s/it] 38%|███▊      | 15/40 [00:37<00:35,  1.41s/it] 40%|████      | 16/40 [00:50<01:41,  4.24s/it] 48%|████▊     | 19/40 [01:12<02:01,  5.77s/it] 50%|█████     | 20/40 [01:19<02:03,  6.15s/it] 52%|█████▎    | 21/40 [01:20<01:33,  4.92s/it] 55%|█████▌    | 22/40 [01:41<02:38,  8.80s/it] 57%|█████▊    | 23/40 [04:09<12:31, 44.21s/it] 60%|██████    | 24/40 [04:19<09:20, 35.06s/it] 62%|██████▎   | 25/40 [04:25<06:44, 26.94s/it] 65%|██████▌   | 26/40 [04:25<04:32, 19.46s/it] 72%|███████▎  | 29/40 [04:26<01:38,  8.92s/it] 75%|███████▌  | 30/40 [04:26<01:11,  7.18s/it] 85%|████████▌ | 34/40 [04:27<00:20,  3.40s/it] 90%|█████████ | 36/40 [04:36<00:14,  3.66s/it] 92%|█████████▎| 37/40 [04:45<00:14,  4.67s/it]100%|██████████| 40/40 [04:57<00:00,  4.27s/it]100%|██████████| 40/40 [04:57<00:00,  7.43s/it]
  0%|          | 0/10 [00:00<?, ?it/s] 10%|█         | 1/10 [00:28<04:14, 28.33s/it] 20%|██        | 2/10 [08:45<40:30, 303.86s/it] 30%|███       | 3/10 [08:59<20:01, 171.61s/it] 40%|████      | 4/10 [09:50<12:23, 123.92s/it] 50%|█████     | 5/10 [10:11<07:14, 86.93s/it]  60%|██████    | 6/10 [10:53<04:46, 71.65s/it] 70%|███████   | 7/10 [11:23<02:53, 57.92s/it] 80%|████████  | 8/10 [11:43<01:32, 46.02s/it] 90%|█████████ | 9/10 [12:10<00:40, 40.09s/it]100%|██████████| 10/10 [12:16<00:00, 29.57s/it]100%|██████████| 10/10 [12:16<00:00, 73.67s/it]
  0%|          | 0/40 [00:00<?, ?it/s]  8%|▊         | 3/40 [00:00<00:07,  5.22it/s] 10%|█         | 4/40 [00:01<00:09,  3.72it/s] 18%|█▊        | 7/40 [00:23<02:24,  4.38s/it] 20%|██        | 8/40 [00:36<03:20,  6.26s/it] 25%|██▌       | 10/40 [00:36<01:58,  3.96s/it] 30%|███       | 12/40 [00:37<01:15,  2.69s/it] 35%|███▌      | 14/40 [00:37<00:48,  1.87s/it] 38%|███▊      | 15/40 [00:38<00:40,  1.61s/it] 40%|████      | 16/40 [00:46<01:13,  3.06s/it] 48%|████▊     | 19/40 [01:12<01:59,  5.67s/it] 50%|█████     | 20/40 [01:23<02:14,  6.72s/it] 52%|█████▎    | 21/40 [01:24<01:44,  5.48s/it] 55%|█████▌    | 22/40 [01:45<02:44,  9.12s/it] 57%|█████▊    | 23/40 [01:55<02:39,  9.38s/it] 60%|██████    | 24/40 [02:05<02:31,  9.48s/it] 62%|██████▎   | 25/40 [02:16<02:30, 10.03s/it] 65%|██████▌   | 26/40 [02:17<01:43,  7.38s/it] 72%|███████▎  | 29/40 [02:34<01:10,  6.45s/it] 75%|███████▌  | 30/40 [02:35<00:52,  5.23s/it] 82%|████████▎ | 33/40 [02:47<00:33,  4.80s/it] 85%|████████▌ | 34/40 [02:48<00:24,  4.02s/it] 90%|█████████ | 36/40 [02:57<00:16,  4.14s/it] 92%|█████████▎| 37/40 [03:05<00:14,  4.97s/it]100%|██████████| 40/40 [03:14<00:00,  4.09s/it]100%|██████████| 40/40 [03:14<00:00,  4.87s/it]
  0%|          | 0/10 [00:00<?, ?it/s] 10%|█         | 1/10 [00:10<01:33, 10.38s/it] 20%|██        | 2/10 [00:36<02:39, 19.92s/it] 30%|███       | 3/10 [01:16<03:22, 28.94s/it] 40%|████      | 4/10 [01:35<02:29, 24.87s/it] 50%|█████     | 5/10 [02:19<02:39, 31.89s/it] 60%|██████    | 6/10 [02:53<02:09, 32.45s/it] 70%|███████   | 7/10 [03:35<01:47, 35.71s/it] 80%|████████  | 8/10 [04:16<01:14, 37.39s/it] 90%|█████████ | 9/10 [05:18<00:45, 45.22s/it]100%|██████████| 10/10 [05:40<00:00, 37.81s/it]100%|██████████| 10/10 [05:40<00:00, 34.02s/it]
  0%|          | 0/40 [00:00<?, ?it/s]  8%|▊         | 3/40 [00:00<00:07,  4.85it/s] 10%|█         | 4/40 [00:01<00:09,  3.78it/s] 18%|█▊        | 7/40 [00:11<01:09,  2.10s/it] 20%|██        | 8/40 [00:21<02:01,  3.79s/it] 25%|██▌       | 10/40 [00:21<01:12,  2.43s/it] 30%|███       | 12/40 [00:30<01:25,  3.06s/it] 35%|███▌      | 14/40 [00:30<00:55,  2.12s/it] 38%|███▊      | 15/40 [00:31<00:44,  1.80s/it] 40%|████      | 16/40 [00:39<01:18,  3.28s/it] 52%|█████▎    | 21/40 [00:52<00:54,  2.84s/it] 55%|█████▌    | 22/40 [01:02<01:09,  3.88s/it] 60%|██████    | 24/40 [01:13<01:09,  4.33s/it] 62%|██████▎   | 25/40 [01:31<01:42,  6.84s/it] 65%|██████▌   | 26/40 [01:32<01:17,  5.56s/it] 72%|███████▎  | 29/40 [01:46<00:57,  5.21s/it] 82%|████████▎ | 33/40 [01:46<00:19,  2.79s/it] 82%|████████▎ | 33/40 [02:05<00:19,  2.79s/it] 85%|████████▌ | 34/40 [02:05<00:30,  5.00s/it] 90%|█████████ | 36/40 [02:14<00:19,  4.90s/it]100%|██████████| 40/40 [02:14<00:00,  3.36s/it]
  0%|          | 0/10 [00:00<?, ?it/s] 10%|█         | 1/10 [00:27<04:10, 27.88s/it] 20%|██        | 2/10 [00:52<03:29, 26.22s/it] 30%|███       | 3/10 [01:14<02:47, 23.87s/it] 40%|████      | 4/10 [01:47<02:46, 27.78s/it] 50%|█████     | 5/10 [02:41<03:06, 37.31s/it] 60%|██████    | 6/10 [03:27<02:40, 40.06s/it] 70%|███████   | 7/10 [03:49<01:42, 34.17s/it] 80%|████████  | 8/10 [04:08<00:58, 29.33s/it] 90%|█████████ | 9/10 [05:01<00:36, 36.80s/it]100%|██████████| 10/10 [05:41<00:00, 37.88s/it]100%|██████████| 10/10 [05:41<00:00, 34.19s/it]
  0%|          | 0/40 [00:00<?, ?it/s] 10%|█         | 4/40 [00:00<00:04,  8.12it/s] 18%|█▊        | 7/40 [02:07<12:02, 21.90s/it] 20%|██        | 8/40 [02:15<10:15, 19.22s/it] 30%|███       | 12/40 [02:16<04:15,  9.13s/it] 35%|███▌      | 14/40 [02:16<02:53,  6.69s/it] 40%|████      | 16/40 [02:25<02:23,  5.98s/it] 48%|████▊     | 19/40 [02:37<01:50,  5.28s/it] 50%|█████     | 20/40 [02:46<01:58,  5.90s/it] 52%|█████▎    | 21/40 [02:47<01:34,  4.95s/it] 55%|█████▌    | 22/40 [02:58<01:50,  6.15s/it] 60%|██████    | 24/40 [03:08<01:32,  5.77s/it] 62%|██████▎   | 25/40 [03:22<01:51,  7.41s/it] 65%|██████▌   | 26/40 [03:22<01:21,  5.83s/it] 72%|███████▎  | 29/40 [03:43<01:09,  6.35s/it] 75%|███████▌  | 30/40 [03:43<00:52,  5.26s/it] 85%|████████▌ | 34/40 [03:44<00:15,  2.53s/it] 90%|█████████ | 36/40 [03:53<00:12,  3.12s/it] 92%|█████████▎| 37/40 [03:58<00:10,  3.48s/it]100%|██████████| 40/40 [03:58<00:00,  5.97s/it]
  0%|          | 0/10 [00:00<?, ?it/s] 10%|█         | 1/10 [00:32<04:51, 32.42s/it] 20%|██        | 2/10 [00:53<03:28, 26.03s/it] 30%|███       | 3/10 [01:26<03:24, 29.16s/it] 40%|████      | 4/10 [02:30<04:15, 42.63s/it] 50%|█████     | 5/10 [03:15<03:37, 43.53s/it] 60%|██████    | 6/10 [03:40<02:29, 37.26s/it] 70%|███████   | 7/10 [04:08<01:42, 34.15s/it] 80%|████████  | 8/10 [04:56<01:17, 38.66s/it] 90%|█████████ | 9/10 [05:39<00:40, 40.06s/it]100%|██████████| 10/10 [06:20<00:00, 40.39s/it]100%|██████████| 10/10 [06:20<00:00, 38.07s/it]
  0%|          | 0/40 [00:00<?, ?it/s] 10%|█         | 4/40 [00:00<00:03, 10.14it/s] 10%|█         | 4/40 [00:22<00:03, 10.14it/s] 18%|█▊        | 7/40 [00:22<02:07,  3.87s/it] 20%|██        | 8/40 [00:31<02:35,  4.85s/it] 30%|███       | 12/40 [00:32<01:06,  2.37s/it] 35%|███▌      | 14/40 [00:32<00:46,  1.78s/it] 40%|████      | 16/40 [00:41<00:59,  2.48s/it] 50%|█████     | 20/40 [00:50<00:47,  2.38s/it] 52%|█████▎    | 21/40 [00:50<00:40,  2.14s/it] 55%|█████▌    | 22/40 [01:01<01:03,  3.50s/it] 60%|██████    | 24/40 [01:12<01:08,  4.25s/it] 62%|██████▎   | 25/40 [01:28<01:34,  6.32s/it] 65%|██████▌   | 26/40 [01:28<01:11,  5.13s/it] 72%|███████▎  | 29/40 [01:37<00:44,  4.00s/it] 82%|████████▎ | 33/40 [01:37<00:14,  2.12s/it] 90%|█████████ | 36/40 [01:45<00:09,  2.31s/it] 92%|█████████▎| 37/40 [01:55<00:10,  3.39s/it]100%|██████████| 40/40 [01:55<00:00,  2.89s/it]
  0%|          | 0/10 [00:00<?, ?it/s] 10%|█         | 1/10 [00:41<06:12, 41.41s/it] 20%|██        | 2/10 [00:56<03:29, 26.17s/it] 30%|███       | 3/10 [01:39<03:55, 33.71s/it] 40%|████      | 4/10 [02:04<03:00, 30.07s/it] 50%|█████     | 5/10 [03:34<04:18, 51.66s/it] 60%|██████    | 6/10 [08:09<08:30, 127.73s/it] 70%|███████   | 7/10 [08:32<04:40, 93.43s/it]  80%|████████  | 8/10 [09:38<02:49, 84.80s/it] 90%|█████████ | 9/10 [10:02<01:05, 65.92s/it]100%|██████████| 10/10 [10:13<00:00, 48.71s/it]100%|██████████| 10/10 [10:13<00:00, 61.31s/it]
  0%|          | 0/40 [00:00<?, ?it/s] 10%|█         | 4/40 [00:00<00:04,  8.10it/s] 18%|█▊        | 7/40 [00:16<01:32,  2.79s/it] 20%|██        | 8/40 [00:26<02:15,  4.23s/it] 30%|███       | 12/40 [00:35<01:31,  3.26s/it] 35%|███▌      | 14/40 [00:54<02:05,  4.85s/it] 40%|████      | 16/40 [01:05<02:00,  5.02s/it] 52%|█████▎    | 21/40 [01:05<00:47,  2.51s/it] 60%|██████    | 24/40 [01:13<00:42,  2.63s/it] 60%|██████    | 24/40 [01:32<00:42,  2.63s/it] 62%|██████▎   | 25/40 [01:32<01:09,  4.63s/it] 65%|██████▌   | 26/40 [01:42<01:15,  5.41s/it] 72%|███████▎  | 29/40 [01:50<00:48,  4.42s/it] 85%|████████▌ | 34/40 [01:51<00:13,  2.29s/it] 85%|████████▌ | 34/40 [02:01<00:13,  2.29s/it] 90%|█████████ | 36/40 [02:01<00:11,  2.96s/it]100%|██████████| 40/40 [02:01<00:00,  3.05s/it]
  0%|          | 0/10 [00:00<?, ?it/s] 10%|█         | 1/10 [00:19<02:54, 19.34s/it] 20%|██        | 2/10 [00:48<03:21, 25.18s/it] 30%|███       | 3/10 [00:56<02:02, 17.43s/it] 40%|████      | 4/10 [01:08<01:31, 15.17s/it] 50%|█████     | 5/10 [01:53<02:08, 25.74s/it] 60%|██████    | 6/10 [03:06<02:47, 41.86s/it] 70%|███████   | 7/10 [03:23<01:41, 33.73s/it] 80%|████████  | 8/10 [03:47<01:01, 30.62s/it] 90%|█████████ | 9/10 [04:05<00:26, 26.82s/it]100%|██████████| 10/10 [05:04<00:00, 36.74s/it]100%|██████████| 10/10 [05:04<00:00, 30.45s/it]
  0%|          | 0/40 [00:00<?, ?it/s]  8%|▊         | 3/40 [00:00<00:07,  4.79it/s] 10%|█         | 4/40 [00:01<00:09,  3.64it/s] 18%|█▊        | 7/40 [00:23<02:24,  4.38s/it] 20%|██        | 8/40 [00:31<02:51,  5.36s/it] 25%|██▌       | 10/40 [00:32<01:42,  3.41s/it] 30%|███       | 12/40 [00:33<01:04,  2.31s/it] 35%|███▌      | 14/40 [00:33<00:42,  1.62s/it] 38%|███▊      | 15/40 [00:34<00:34,  1.39s/it] 40%|████      | 16/40 [00:44<01:18,  3.27s/it] 48%|████▊     | 19/40 [01:09<02:01,  5.77s/it] 50%|█████     | 20/40 [01:16<02:00,  6.00s/it] 52%|█████▎    | 21/40 [01:17<01:32,  4.87s/it] 55%|█████▌    | 22/40 [01:29<02:00,  6.70s/it] 60%|██████    | 24/40 [01:41<01:39,  6.24s/it] 62%|██████▎   | 25/40 [01:57<02:08,  8.57s/it] 65%|██████▌   | 26/40 [01:58<01:33,  6.65s/it] 72%|███████▎  | 29/40 [02:12<01:02,  5.64s/it] 75%|███████▌  | 30/40 [02:12<00:46,  4.61s/it] 85%|████████▌ | 34/40 [02:13<00:13,  2.25s/it] 90%|█████████ | 36/40 [02:23<00:11,  3.00s/it] 92%|█████████▎| 37/40 [02:33<00:12,  4.13s/it]100%|██████████| 40/40 [02:33<00:00,  3.83s/it]
  0%|          | 0/10 [00:00<?, ?it/s] 10%|█         | 1/10 [00:58<08:48, 58.72s/it] 20%|██        | 2/10 [01:23<05:10, 38.86s/it] 30%|███       | 3/10 [02:18<05:22, 46.03s/it] 40%|████      | 4/10 [03:04<04:35, 45.96s/it] 50%|█████     | 5/10 [03:59<04:05, 49.19s/it] 60%|██████    | 6/10 [04:28<02:50, 42.65s/it] 70%|███████   | 7/10 [04:44<01:41, 33.93s/it] 80%|████████  | 8/10 [05:31<01:15, 37.88s/it] 90%|█████████ | 9/10 [05:58<00:34, 34.46s/it]100%|██████████| 10/10 [08:01<00:00, 61.85s/it]100%|██████████| 10/10 [08:01<00:00, 48.14s/it]
  0%|          | 0/40 [00:00<?, ?it/s]  8%|▊         | 3/40 [00:00<00:07,  4.74it/s] 10%|█         | 4/40 [00:00<00:09,  3.89it/s] 18%|█▊        | 7/40 [00:24<02:30,  4.56s/it] 20%|██        | 8/40 [00:32<02:53,  5.43s/it] 25%|██▌       | 10/40 [00:33<01:43,  3.45s/it] 28%|██▊       | 11/40 [00:33<01:21,  2.79s/it] 30%|███       | 12/40 [00:34<01:03,  2.28s/it] 35%|███▌      | 14/40 [00:34<00:37,  1.46s/it] 38%|███▊      | 15/40 [00:35<00:31,  1.25s/it] 40%|████      | 16/40 [00:43<01:14,  3.10s/it] 48%|████▊     | 19/40 [01:09<02:02,  5.81s/it] 50%|█████     | 20/40 [01:16<02:01,  6.07s/it] 52%|█████▎    | 21/40 [01:17<01:34,  4.96s/it] 55%|█████▌    | 22/40 [01:28<01:56,  6.47s/it] 57%|█████▊    | 23/40 [01:54<03:13, 11.36s/it] 60%|██████    | 24/40 [02:03<02:49, 10.61s/it] 62%|██████▎   | 25/40 [02:15<02:45, 11.06s/it] 65%|██████▌   | 26/40 [02:15<01:52,  8.07s/it] 72%|███████▎  | 29/40 [02:29<01:07,  6.09s/it] 75%|███████▌  | 30/40 [02:29<00:48,  4.90s/it] 85%|████████▌ | 34/40 [02:29<00:13,  2.33s/it] 90%|█████████ | 36/40 [02:44<00:14,  3.67s/it] 92%|█████████▎| 37/40 [02:55<00:14,  4.87s/it]100%|██████████| 40/40 [02:55<00:00,  4.38s/it]
  0%|          | 0/10 [00:00<?, ?it/s] 10%|█         | 1/10 [00:39<05:55, 39.51s/it] 20%|██        | 2/10 [01:18<05:13, 39.16s/it] 30%|███       | 3/10 [02:47<07:14, 62.06s/it] 40%|████      | 4/10 [03:33<05:33, 55.53s/it] 50%|█████     | 5/10 [04:15<04:12, 50.56s/it] 60%|██████    | 6/10 [04:49<03:00, 45.10s/it] 70%|███████   | 7/10 [05:24<02:05, 41.67s/it] 80%|████████  | 8/10 [05:43<01:09, 34.55s/it] 90%|█████████ | 9/10 [06:30<00:38, 38.51s/it]100%|██████████| 10/10 [07:03<00:00, 36.75s/it]100%|██████████| 10/10 [07:03<00:00, 42.34s/it]
  0%|          | 0/40 [00:00<?, ?it/s]  8%|▊         | 3/40 [00:00<00:07,  5.03it/s] 10%|█         | 4/40 [00:01<00:11,  3.20it/s] 15%|█▌        | 6/40 [00:01<00:08,  3.92it/s] 18%|█▊        | 7/40 [00:25<03:31,  6.41s/it] 20%|██        | 8/40 [00:51<06:08, 11.51s/it] 25%|██▌       | 10/40 [00:51<03:18,  6.63s/it] 28%|██▊       | 11/40 [00:52<02:30,  5.18s/it] 30%|███       | 12/40 [00:52<01:51,  4.00s/it] 35%|███▌      | 14/40 [00:54<01:11,  2.76s/it] 38%|███▊      | 15/40 [00:55<00:55,  2.21s/it] 40%|████      | 16/40 [01:02<01:23,  3.46s/it] 48%|████▊     | 19/40 [01:22<01:46,  5.07s/it] 50%|█████     | 20/40 [01:29<01:48,  5.43s/it] 52%|█████▎    | 21/40 [01:29<01:23,  4.40s/it] 55%|█████▌    | 22/40 [01:51<02:34,  8.59s/it] 57%|█████▊    | 23/40 [02:17<03:41, 13.00s/it] 60%|██████    | 24/40 [02:28<03:17, 12.31s/it] 62%|██████▎   | 25/40 [02:29<02:16,  9.13s/it] 65%|██████▌   | 26/40 [02:29<01:33,  6.69s/it] 72%|███████▎  | 29/40 [02:30<00:34,  3.14s/it] 75%|███████▌  | 30/40 [02:30<00:25,  2.58s/it] 85%|████████▌ | 34/40 [02:31<00:07,  1.25s/it] 88%|████████▊ | 35/40 [02:32<00:06,  1.28s/it] 90%|█████████ | 36/40 [02:41<00:10,  2.65s/it] 92%|█████████▎| 37/40 [02:51<00:13,  4.35s/it]100%|██████████| 40/40 [03:02<00:00,  3.91s/it]100%|██████████| 40/40 [03:02<00:00,  4.55s/it]
  0%|          | 0/10 [00:00<?, ?it/s] 10%|█         | 1/10 [00:40<06:03, 40.40s/it] 20%|██        | 2/10 [00:59<03:42, 27.82s/it] 30%|███       | 3/10 [01:19<02:48, 24.09s/it] 40%|████      | 4/10 [01:31<01:57, 19.56s/it] 50%|█████     | 5/10 [02:16<02:23, 28.62s/it] 60%|██████    | 6/10 [02:36<01:42, 25.72s/it] 70%|███████   | 7/10 [03:02<01:17, 25.97s/it] 80%|████████  | 8/10 [03:19<00:46, 23.03s/it] 90%|█████████ | 9/10 [04:18<00:34, 34.17s/it]100%|██████████| 10/10 [04:36<00:00, 29.15s/it]100%|██████████| 10/10 [04:36<00:00, 27.62s/it]
  0%|          | 0/40 [00:00<?, ?it/s]  8%|▊         | 3/40 [00:00<00:06,  5.51it/s] 10%|█         | 4/40 [00:01<00:10,  3.58it/s] 15%|█▌        | 6/40 [00:01<00:07,  4.40it/s] 18%|█▊        | 7/40 [00:21<02:53,  5.27s/it] 20%|██        | 8/40 [00:40<04:50,  9.08s/it] 25%|██▌       | 10/40 [00:41<02:37,  5.26s/it] 28%|██▊       | 11/40 [00:41<01:59,  4.11s/it] 30%|███       | 12/40 [00:42<01:29,  3.19s/it] 35%|███▌      | 14/40 [00:42<00:50,  1.95s/it] 38%|███▊      | 15/40 [00:43<00:39,  1.59s/it] 40%|████      | 16/40 [00:51<01:18,  3.25s/it] 48%|████▊     | 19/40 [00:52<00:35,  1.69s/it] 50%|█████     | 20/40 [00:59<00:55,  2.78s/it] 52%|█████▎    | 21/40 [00:59<00:43,  2.28s/it] 55%|█████▌    | 22/40 [01:23<02:12,  7.36s/it] 57%|█████▊    | 23/40 [03:48<11:58, 42.28s/it] 60%|██████    | 24/40 [03:57<08:55, 33.48s/it] 62%|██████▎   | 25/40 [03:58<06:06, 24.46s/it] 65%|██████▌   | 26/40 [03:58<04:07, 17.71s/it] 68%|██████▊   | 27/40 [03:59<02:46, 12.77s/it] 70%|███████   | 28/40 [04:23<03:14, 16.24s/it] 72%|███████▎  | 29/40 [04:24<02:07, 11.61s/it] 75%|███████▌  | 30/40 [04:24<01:22,  8.30s/it] 82%|████████▎ | 33/40 [04:25<00:26,  3.76s/it] 85%|████████▌ | 34/40 [04:25<00:18,  3.05s/it] 88%|████████▊ | 35/40 [04:26<00:12,  2.43s/it] 90%|█████████ | 36/40 [04:49<00:30,  7.59s/it] 92%|█████████▎| 37/40 [06:42<01:45, 35.20s/it]100%|██████████| 40/40 [06:56<00:00, 19.00s/it]100%|██████████| 40/40 [06:56<00:00, 10.40s/it]
  0%|          | 0/10 [00:00<?, ?it/s] 10%|█         | 1/10 [01:02<09:26, 62.98s/it] 20%|██        | 2/10 [01:36<06:04, 45.60s/it] 30%|███       | 3/10 [02:24<05:28, 46.90s/it] 40%|████      | 4/10 [02:49<03:48, 38.01s/it] 50%|█████     | 5/10 [03:46<03:45, 45.07s/it] 60%|██████    | 6/10 [04:27<02:54, 43.69s/it] 70%|███████   | 7/10 [04:49<01:49, 36.45s/it] 80%|████████  | 8/10 [05:12<01:04, 32.13s/it] 90%|█████████ | 9/10 [05:41<00:31, 31.31s/it]100%|██████████| 10/10 [06:12<00:00, 31.10s/it]100%|██████████| 10/10 [06:12<00:00, 37.24s/it]200 tiles for training, 100 tiles for testing
Each tile is of size: 256 x 256 x 4
data ok
set ok
tensor([0.2177, 0.7823])
tensor([103.6027], device='cuda:0')
depart apprentissage
Total number of parameters: 40839
[100m
Urban : 77.65%  |  not Urban : 44.91%
Epoch   0 -> Overall Accuracy: 81.10% mIoU : 61.28% Loss: 0.1258 Loss reg: 0.0000000000 Loss_total: 0.1258[0m
Urban : 77.65%  |  not Urban : 44.91%
[101m
Urban : 75.62%  |  not Urban : 1.07%
Validation   0 -> Overall Accuracy: 75.69% mIoU : 38.35% Loss: 0.1820 Loss reg: 0.0000000000 Loss_total: 0.1820[0m
Urban : 75.62%  |  not Urban : 1.07%


[100m
Urban : 87.44%  |  not Urban : 63.21%
Epoch   1 -> Overall Accuracy: 89.67% mIoU : 75.32% Loss: 0.0892 Loss reg: 0.0000000000 Loss_total: 0.0892[0m
Urban : 87.44%  |  not Urban : 63.21%
[101m
Urban : 76.01%  |  not Urban : 3.72%
Validation   1 -> Overall Accuracy: 76.23% mIoU : 39.86% Loss: 0.2182 Loss reg: 0.0000000000 Loss_total: 0.2182[0m
Urban : 76.01%  |  not Urban : 3.72%


[100m
Urban : 89.99%  |  not Urban : 70.02%
Epoch   2 -> Overall Accuracy: 91.89% mIoU : 80.01% Loss: 0.0631 Loss reg: 0.0000000000 Loss_total: 0.0631[0m
Urban : 89.99%  |  not Urban : 70.02%
[101m
Urban : 80.60%  |  not Urban : 28.00%
Validation   2 -> Overall Accuracy: 81.96% mIoU : 54.30% Loss: 0.1795 Loss reg: 0.0000000000 Loss_total: 0.1795[0m
Urban : 80.60%  |  not Urban : 28.00%


[100m
Urban : 91.33%  |  not Urban : 72.76%
Epoch   3 -> Overall Accuracy: 92.96% mIoU : 82.04% Loss: 0.0516 Loss reg: 0.0000000000 Loss_total: 0.0516[0m
Urban : 91.33%  |  not Urban : 72.76%
[101m
Urban : 88.29%  |  not Urban : 63.93%
Validation   3 -> Overall Accuracy: 90.30% mIoU : 76.11% Loss: 0.0920 Loss reg: 0.0000000000 Loss_total: 0.0920[0m
Urban : 88.29%  |  not Urban : 63.93%


[100m
Urban : 90.40%  |  not Urban : 70.13%
Epoch   4 -> Overall Accuracy: 92.17% mIoU : 80.27% Loss: 0.0527 Loss reg: 0.0000000000 Loss_total: 0.0527[0m
Urban : 90.40%  |  not Urban : 70.13%
[101m
Urban : 40.16%  |  not Urban : 34.40%
Validation   4 -> Overall Accuracy: 54.45% mIoU : 37.28% Loss: 0.1821 Loss reg: 0.0000000000 Loss_total: 0.1821[0m
Urban : 40.16%  |  not Urban : 34.40%


[100m
Urban : 91.52%  |  not Urban : 71.61%
Epoch   5 -> Overall Accuracy: 93.02% mIoU : 81.57% Loss: 0.0530 Loss reg: 0.0000000000 Loss_total: 0.0530[0m
Urban : 91.52%  |  not Urban : 71.61%
[101m
Urban : 67.56%  |  not Urban : 48.58%
Validation   5 -> Overall Accuracy: 75.17% mIoU : 58.07% Loss: 0.1026 Loss reg: 0.0000000000 Loss_total: 0.1026[0m
Urban : 67.56%  |  not Urban : 48.58%


[100m
Urban : 89.79%  |  not Urban : 69.53%
Epoch   6 -> Overall Accuracy: 91.72% mIoU : 79.66% Loss: 0.0474 Loss reg: 0.0000000000 Loss_total: 0.0474[0m
Urban : 89.79%  |  not Urban : 69.53%
[101m
Urban : 86.13%  |  not Urban : 69.76%
Validation   6 -> Overall Accuracy: 89.49% mIoU : 77.95% Loss: 0.0463 Loss reg: 0.0000000000 Loss_total: 0.0463[0m
Urban : 86.13%  |  not Urban : 69.76%


[100m
Urban : 91.26%  |  not Urban : 72.26%
Epoch   7 -> Overall Accuracy: 92.88% mIoU : 81.76% Loss: 0.0459 Loss reg: 0.0000000000 Loss_total: 0.0459[0m
Urban : 91.26%  |  not Urban : 72.26%
[101m
Urban : 91.23%  |  not Urban : 77.39%
Validation   7 -> Overall Accuracy: 93.25% mIoU : 84.31% Loss: 0.0440 Loss reg: 0.0000000000 Loss_total: 0.0440[0m
Urban : 91.23%  |  not Urban : 77.39%


[100m
Urban : 92.90%  |  not Urban : 76.41%
Epoch   8 -> Overall Accuracy: 94.23% mIoU : 84.65% Loss: 0.0384 Loss reg: 0.0000000000 Loss_total: 0.0384[0m
Urban : 92.90%  |  not Urban : 76.41%
[101m
Urban : 82.86%  |  not Urban : 65.12%
Validation   8 -> Overall Accuracy: 87.02% mIoU : 73.99% Loss: 0.0536 Loss reg: 0.0000000000 Loss_total: 0.0536[0m
Urban : 82.86%  |  not Urban : 65.12%


[100m
Urban : 92.76%  |  not Urban : 75.98%
Epoch   9 -> Overall Accuracy: 94.11% mIoU : 84.37% Loss: 0.0397 Loss reg: 0.0000000000 Loss_total: 0.0397[0m
Urban : 92.76%  |  not Urban : 75.98%
[101m
Urban : 93.51%  |  not Urban : 82.16%
Validation   9 -> Overall Accuracy: 95.01% mIoU : 87.84% Loss: 0.0385 Loss reg: 0.0000000000 Loss_total: 0.0385[0m
Urban : 93.51%  |  not Urban : 82.16%


[100m
Urban : 92.25%  |  not Urban : 74.57%
Epoch  10 -> Overall Accuracy: 93.68% mIoU : 83.41% Loss: 0.0405 Loss reg: 0.0000000000 Loss_total: 0.0405[0m
Urban : 92.25%  |  not Urban : 74.57%
[101m
Urban : 92.67%  |  not Urban : 80.49%
Validation  10 -> Overall Accuracy: 94.37% mIoU : 86.58% Loss: 0.0419 Loss reg: 0.0000000000 Loss_total: 0.0419[0m
Urban : 92.67%  |  not Urban : 80.49%


[100m
Urban : 92.52%  |  not Urban : 75.68%
Epoch  11 -> Overall Accuracy: 93.93% mIoU : 84.10% Loss: 0.0370 Loss reg: 0.0000000000 Loss_total: 0.0370[0m
Urban : 92.52%  |  not Urban : 75.68%
[101m
Urban : 89.91%  |  not Urban : 75.48%
Validation  11 -> Overall Accuracy: 92.30% mIoU : 82.69% Loss: 0.0416 Loss reg: 0.0000000000 Loss_total: 0.0416[0m
Urban : 89.91%  |  not Urban : 75.48%


[100m
Urban : 90.52%  |  not Urban : 70.79%
Epoch  12 -> Overall Accuracy: 92.29% mIoU : 80.65% Loss: 0.0476 Loss reg: 0.0000000000 Loss_total: 0.0476[0m
Urban : 90.52%  |  not Urban : 70.79%
[101m
Urban : 76.94%  |  not Urban : 58.27%
Validation  12 -> Overall Accuracy: 82.56% mIoU : 67.61% Loss: 0.0667 Loss reg: 0.0000000000 Loss_total: 0.0667[0m
Urban : 76.94%  |  not Urban : 58.27%


[100m
Urban : 92.79%  |  not Urban : 75.60%
Epoch  13 -> Overall Accuracy: 94.11% mIoU : 84.20% Loss: 0.0428 Loss reg: 0.0000000000 Loss_total: 0.0428[0m
Urban : 92.79%  |  not Urban : 75.60%
[101m
Urban : 77.92%  |  not Urban : 58.97%
Validation  13 -> Overall Accuracy: 83.24% mIoU : 68.44% Loss: 0.0705 Loss reg: 0.0000000000 Loss_total: 0.0705[0m
Urban : 77.92%  |  not Urban : 58.97%


[100m
Urban : 91.81%  |  not Urban : 74.10%
Epoch  14 -> Overall Accuracy: 93.36% mIoU : 82.95% Loss: 0.0385 Loss reg: 0.0000000000 Loss_total: 0.0385[0m
Urban : 91.81%  |  not Urban : 74.10%
[101m
Urban : 72.57%  |  not Urban : 53.64%
Validation  14 -> Overall Accuracy: 79.18% mIoU : 63.10% Loss: 0.0957 Loss reg: 0.0000000000 Loss_total: 0.0957[0m
Urban : 72.57%  |  not Urban : 53.64%


[100m
Urban : 92.19%  |  not Urban : 74.84%
Epoch  15 -> Overall Accuracy: 93.66% mIoU : 83.51% Loss: 0.0385 Loss reg: 0.0000000000 Loss_total: 0.0385[0m
Urban : 92.19%  |  not Urban : 74.84%
[101m
Urban : 52.26%  |  not Urban : 40.37%
Validation  15 -> Overall Accuracy: 63.92% mIoU : 46.31% Loss: 0.1427 Loss reg: 0.0000000000 Loss_total: 0.1427[0m
Urban : 52.26%  |  not Urban : 40.37%


[100m
Urban : 92.65%  |  not Urban : 76.14%
Epoch  16 -> Overall Accuracy: 94.05% mIoU : 84.40% Loss: 0.0359 Loss reg: 0.0000000000 Loss_total: 0.0359[0m
Urban : 92.65%  |  not Urban : 76.14%
[101m
Urban : 91.62%  |  not Urban : 78.88%
Validation  16 -> Overall Accuracy: 93.62% mIoU : 85.25% Loss: 0.0353 Loss reg: 0.0000000000 Loss_total: 0.0353[0m
Urban : 91.62%  |  not Urban : 78.88%


[100m
Urban : 94.05%  |  not Urban : 79.59%
Epoch  17 -> Overall Accuracy: 95.17% mIoU : 86.82% Loss: 0.0332 Loss reg: 0.0000000000 Loss_total: 0.0332[0m
Urban : 94.05%  |  not Urban : 79.59%
[101m
Urban : 92.33%  |  not Urban : 80.27%
Validation  17 -> Overall Accuracy: 94.15% mIoU : 86.30% Loss: 0.0345 Loss reg: 0.0000000000 Loss_total: 0.0345[0m
Urban : 92.33%  |  not Urban : 80.27%


[100m
Urban : 92.72%  |  not Urban : 76.12%
Epoch  18 -> Overall Accuracy: 94.09% mIoU : 84.42% Loss: 0.0369 Loss reg: 0.0000000000 Loss_total: 0.0369[0m
Urban : 92.72%  |  not Urban : 76.12%
[101m
Urban : 93.52%  |  not Urban : 82.24%
Validation  18 -> Overall Accuracy: 95.02% mIoU : 87.88% Loss: 0.0379 Loss reg: 0.0000000000 Loss_total: 0.0379[0m
Urban : 93.52%  |  not Urban : 82.24%


[100m
Urban : 94.06%  |  not Urban : 79.65%
Epoch  19 -> Overall Accuracy: 95.18% mIoU : 86.86% Loss: 0.0328 Loss reg: 0.0000000000 Loss_total: 0.0328[0m
Urban : 94.06%  |  not Urban : 79.65%
[101m
Urban : 92.51%  |  not Urban : 78.43%
Validation  19 -> Overall Accuracy: 94.11% mIoU : 85.47% Loss: 0.0553 Loss reg: 0.0000000000 Loss_total: 0.0553[0m
Urban : 92.51%  |  not Urban : 78.43%


[100m
Urban : 92.37%  |  not Urban : 75.59%

  0%|          | 0/40 [00:00<?, ?it/s]  8%|▊         | 3/40 [00:00<00:06,  5.54it/s] 10%|█         | 4/40 [00:00<00:09,  3.97it/s] 15%|█▌        | 6/40 [00:01<00:07,  4.62it/s] 18%|█▊        | 7/40 [00:23<03:16,  5.94s/it] 20%|██        | 8/40 [00:50<06:02, 11.32s/it] 25%|██▌       | 10/40 [00:50<03:15,  6.51s/it] 28%|██▊       | 11/40 [00:50<02:27,  5.08s/it] 30%|███       | 12/40 [00:51<01:50,  3.94s/it] 35%|███▌      | 14/40 [00:51<01:01,  2.38s/it] 38%|███▊      | 15/40 [00:52<00:47,  1.90s/it] 40%|████      | 16/40 [01:04<01:50,  4.60s/it] 48%|████▊     | 19/40 [01:05<00:49,  2.35s/it] 50%|█████     | 20/40 [01:13<01:08,  3.41s/it] 52%|█████▎    | 21/40 [01:14<00:52,  2.79s/it] 55%|█████▌    | 22/40 [01:38<02:23,  7.98s/it] 57%|█████▊    | 23/40 [02:01<03:19, 11.73s/it] 60%|██████    | 24/40 [02:11<03:02, 11.39s/it] 62%|██████▎   | 25/40 [02:12<02:06,  8.45s/it] 65%|██████▌   | 26/40 [02:12<01:26,  6.21s/it] 70%|███████   | 28/40 [02:22<01:06,  5.51s/it] 72%|███████▎  | 29/40 [02:22<00:47,  4.33s/it] 75%|███████▌  | 30/40 [02:23<00:33,  3.32s/it] 82%|████████▎ | 33/40 [02:23<00:11,  1.67s/it] 85%|████████▌ | 34/40 [02:24<00:08,  1.41s/it] 90%|█████████ | 36/40 [02:50<00:22,  5.64s/it] 92%|█████████▎| 37/40 [03:00<00:19,  6.55s/it]100%|██████████| 40/40 [03:10<00:00,  5.05s/it]100%|██████████| 40/40 [03:10<00:00,  4.76s/it]
  0%|          | 0/10 [00:00<?, ?it/s] 10%|█         | 1/10 [00:46<06:56, 46.24s/it] 20%|██        | 2/10 [01:18<05:03, 37.90s/it] 30%|███       | 3/10 [02:05<04:55, 42.22s/it] 40%|████      | 4/10 [02:34<03:41, 37.00s/it] 50%|█████     | 5/10 [03:03<02:50, 34.01s/it] 60%|██████    | 6/10 [03:08<01:36, 24.17s/it] 70%|███████   | 7/10 [03:28<01:08, 22.85s/it] 80%|████████  | 8/10 [04:08<00:56, 28.28s/it] 90%|█████████ | 9/10 [04:31<00:26, 26.79s/it]100%|██████████| 10/10 [05:14<00:00, 31.51s/it]100%|██████████| 10/10 [05:14<00:00, 31.41s/it]
  0%|          | 0/40 [00:00<?, ?it/s]  8%|▊         | 3/40 [00:00<00:08,  4.19it/s] 10%|█         | 4/40 [00:01<00:11,  3.07it/s] 15%|█▌        | 6/40 [00:01<00:08,  3.81it/s] 18%|█▊        | 7/40 [00:23<03:06,  5.65s/it] 20%|██        | 8/40 [00:48<05:49, 10.92s/it] 25%|██▌       | 10/40 [00:49<03:11,  6.37s/it] 28%|██▊       | 11/40 [00:49<02:24,  4.98s/it] 30%|███       | 12/40 [00:50<01:47,  3.85s/it] 35%|███▌      | 14/40 [00:50<01:01,  2.36s/it] 38%|███▊      | 15/40 [00:51<00:49,  1.99s/it] 40%|████      | 16/40 [01:01<01:36,  4.01s/it] 48%|████▊     | 19/40 [01:16<01:33,  4.47s/it] 50%|█████     | 20/40 [01:23<01:41,  5.06s/it] 52%|█████▎    | 21/40 [01:24<01:17,  4.10s/it] 55%|█████▌    | 22/40 [01:49<02:44,  9.12s/it] 57%|█████▊    | 23/40 [02:17<03:54, 13.79s/it] 60%|██████    | 24/40 [02:26<03:23, 12.73s/it] 62%|██████▎   | 25/40 [02:27<02:21,  9.42s/it] 65%|██████▌   | 26/40 [02:28<01:36,  6.88s/it] 70%|███████   | 28/40 [02:38<01:14,  6.20s/it] 72%|███████▎  | 29/40 [02:39<00:53,  4.85s/it] 75%|███████▌  | 30/40 [02:39<00:37,  3.73s/it] 85%|████████▌ | 34/40 [02:40<00:09,  1.59s/it] 88%|████████▊ | 35/40 [02:40<00:07,  1.40s/it] 90%|█████████ | 36/40 [03:04<00:23,  5.89s/it] 92%|█████████▎| 37/40 [03:14<00:20,  6.81s/it]100%|██████████| 40/40 [03:26<00:00,  5.39s/it]100%|██████████| 40/40 [03:26<00:00,  5.16s/it]
  0%|          | 0/10 [00:00<?, ?it/s] 10%|█         | 1/10 [00:06<00:56,  6.30s/it] 20%|██        | 2/10 [01:16<05:50, 43.84s/it] 30%|███       | 3/10 [01:21<03:03, 26.20s/it] 40%|████      | 4/10 [01:38<02:14, 22.42s/it] 50%|█████     | 5/10 [02:16<02:21, 28.22s/it] 60%|██████    | 6/10 [02:51<02:01, 30.28s/it] 70%|███████   | 7/10 [03:06<01:16, 25.39s/it] 80%|████████  | 8/10 [04:00<01:09, 34.66s/it] 90%|█████████ | 9/10 [04:45<00:37, 37.90s/it]100%|██████████| 10/10 [05:42<00:00, 43.56s/it]100%|██████████| 10/10 [05:42<00:00, 34.21s/it]
  0%|          | 0/40 [00:00<?, ?it/s]  8%|▊         | 3/40 [00:00<00:07,  5.22it/s] 10%|█         | 4/40 [00:01<00:09,  3.73it/s] 18%|█▊        | 7/40 [00:24<02:33,  4.64s/it] 20%|██        | 8/40 [00:36<03:22,  6.32s/it] 25%|██▌       | 10/40 [00:37<02:00,  4.02s/it] 30%|███       | 12/40 [00:38<01:15,  2.71s/it] 35%|███▌      | 14/40 [00:38<00:49,  1.91s/it] 38%|███▊      | 15/40 [00:39<00:40,  1.62s/it] 40%|████      | 16/40 [00:47<01:13,  3.06s/it] 50%|█████     | 20/40 [00:57<00:56,  2.82s/it] 52%|█████▎    | 21/40 [00:58<00:47,  2.52s/it] 55%|█████▌    | 22/40 [01:10<01:16,  4.24s/it] 57%|█████▊    | 23/40 [01:21<01:38,  5.81s/it] 60%|██████    | 24/40 [01:32<01:50,  6.93s/it] 62%|██████▎   | 25/40 [01:47<02:13,  8.89s/it] 65%|██████▌   | 26/40 [01:47<01:34,  6.72s/it] 72%|███████▎  | 29/40 [02:06<01:09,  6.35s/it] 75%|███████▌  | 30/40 [02:06<00:52,  5.21s/it] 85%|████████▌ | 34/40 [02:07<00:15,  2.50s/it] 90%|█████████ | 36/40 [02:15<00:11,  2.91s/it] 92%|█████████▎| 37/40 [02:25<00:12,  4.09s/it]100%|██████████| 40/40 [02:35<00:00,  3.77s/it]100%|██████████| 40/40 [02:35<00:00,  3.88s/it]
  0%|          | 0/10 [00:00<?, ?it/s] 10%|█         | 1/10 [00:39<05:56, 39.56s/it] 20%|██        | 2/10 [01:23<05:37, 42.13s/it] 30%|███       | 3/10 [01:58<04:32, 38.99s/it] 40%|████      | 4/10 [02:42<04:04, 40.78s/it] 50%|█████     | 5/10 [03:17<03:14, 38.88s/it] 60%|██████    | 6/10 [03:55<02:34, 38.65s/it] 70%|███████   | 7/10 [04:33<01:55, 38.35s/it] 80%|████████  | 8/10 [05:08<01:14, 37.36s/it] 90%|█████████ | 9/10 [06:00<00:41, 41.66s/it]100%|██████████| 10/10 [06:07<00:00, 31.23s/it]100%|██████████| 10/10 [06:07<00:00, 36.79s/it]
  0%|          | 0/40 [00:00<?, ?it/s]  8%|▊         | 3/40 [00:00<00:07,  4.77it/s] 10%|█         | 4/40 [00:01<00:10,  3.43it/s] 18%|█▊        | 7/40 [00:21<02:15,  4.10s/it] 20%|██        | 8/40 [00:32<02:57,  5.55s/it] 25%|██▌       | 10/40 [00:32<01:45,  3.52s/it] 30%|███       | 12/40 [00:46<02:11,  4.70s/it] 35%|███▌      | 14/40 [00:47<01:23,  3.20s/it] 40%|████      | 16/40 [00:57<01:30,  3.78s/it] 52%|█████▎    | 21/40 [01:05<00:50,  2.65s/it] 55%|█████▌    | 22/40 [01:13<01:01,  3.42s/it] 60%|██████    | 24/40 [01:24<01:04,  4.00s/it] 62%|██████▎   | 25/40 [01:48<01:47,  7.15s/it] 65%|██████▌   | 26/40 [01:48<01:22,  5.91s/it] 72%|███████▎  | 29/40 [01:57<00:50,  4.56s/it] 75%|███████▌  | 30/40 [01:58<00:38,  3.85s/it] 85%|████████▌ | 34/40 [06:16<03:25, 34.32s/it] 90%|█████████ | 36/40 [06:26<01:46, 26.67s/it]100%|██████████| 40/40 [06:27<00:00,  9.68s/it]
  0%|          | 0/10 [00:00<?, ?it/s] 10%|█         | 1/10 [00:50<07:37, 50.83s/it] 20%|██        | 2/10 [01:32<06:03, 45.42s/it] 30%|███       | 3/10 [01:52<03:58, 34.02s/it] 40%|████      | 4/10 [02:22<03:13, 32.25s/it] 50%|█████     | 5/10 [02:56<02:44, 32.96s/it] 60%|██████    | 6/10 [03:05<01:39, 24.77s/it] 70%|███████   | 7/10 [03:44<01:28, 29.41s/it] 80%|████████  | 8/10 [04:08<00:55, 27.81s/it] 90%|█████████ | 9/10 [04:52<00:32, 32.60s/it]100%|██████████| 10/10 [05:17<00:00, 30.55s/it]100%|██████████| 10/10 [05:17<00:00, 31.80s/it]
  0%|          | 0/40 [00:00<?, ?it/s]  8%|▊         | 3/40 [00:00<00:06,  5.93it/s] 10%|█         | 4/40 [00:00<00:08,  4.03it/s] 18%|█▊        | 7/40 [00:25<02:37,  4.77s/it] 20%|██        | 8/40 [00:38<03:30,  6.56s/it] 25%|██▌       | 10/40 [00:38<02:03,  4.13s/it] 28%|██▊       | 11/40 [00:38<01:36,  3.33s/it] 30%|███       | 12/40 [00:39<01:15,  2.70s/it] 35%|███▌      | 14/40 [00:39<00:44,  1.71s/it] 38%|███▊      | 15/40 [00:40<00:35,  1.40s/it] 40%|████      | 16/40 [00:49<01:19,  3.32s/it] 48%|████▊     | 19/40 [01:10<01:48,  5.18s/it] 50%|█████     | 20/40 [01:22<02:10,  6.53s/it] 52%|█████▎    | 21/40 [01:23<01:39,  5.23s/it] 55%|█████▌    | 22/40 [01:45<02:48,  9.36s/it] 57%|█████▊    | 23/40 [02:11<03:48, 13.47s/it] 60%|██████    | 24/40 [02:21<03:21, 12.61s/it] 62%|██████▎   | 25/40 [02:33<03:03, 12.25s/it] 65%|██████▌   | 26/40 [02:33<02:05,  8.93s/it] 72%|███████▎  | 29/40 [02:34<00:45,  4.16s/it] 75%|███████▌  | 30/40 [02:34<00:33,  3.38s/it] 85%|████████▌ | 34/40 [02:35<00:09,  1.62s/it] 90%|█████████ | 36/40 [02:43<00:09,  2.40s/it] 92%|█████████▎| 37/40 [02:53<00:10,  3.62s/it]100%|██████████| 40/40 [03:02<00:00,  3.36s/it]100%|██████████| 40/40 [03:02<00:00,  4.57s/it]
  0%|          | 0/10 [00:00<?, ?it/s] 10%|█         | 1/10 [00:09<01:27,  9.70s/it] 20%|██        | 2/10 [00:51<03:50, 28.80s/it] 30%|███       | 3/10 [01:55<05:13, 44.81s/it] 40%|████      | 4/10 [02:37<04:22, 43.76s/it] 50%|█████     | 5/10 [02:55<02:51, 34.30s/it] 60%|██████    | 6/10 [03:50<02:45, 41.40s/it] 70%|███████   | 7/10 [04:12<01:45, 35.07s/it] 80%|████████  | 8/10 [04:34<01:01, 30.82s/it] 90%|█████████ | 9/10 [04:58<00:28, 28.84s/it]100%|██████████| 10/10 [05:46<00:00, 34.70s/it]100%|██████████| 10/10 [05:46<00:00, 34.67s/it]
  0%|          | 0/40 [00:00<?, ?it/s]  8%|▊         | 3/40 [00:00<00:06,  6.13it/s] 10%|█         | 4/40 [00:00<00:07,  4.62it/s] 18%|█▊        | 7/40 [00:26<02:48,  5.09s/it] 20%|██        | 8/40 [00:40<03:44,  7.00s/it] 25%|██▌       | 10/40 [00:40<02:12,  4.40s/it] 30%|███       | 12/40 [00:41<01:22,  2.95s/it] 35%|███▌      | 14/40 [00:42<00:52,  2.04s/it] 38%|███▊      | 15/40 [00:42<00:43,  1.72s/it] 40%|████      | 16/40 [00:52<01:26,  3.59s/it] 48%|████▊     | 19/40 [01:01<01:09,  3.29s/it] 52%|█████▎    | 21/40 [01:02<00:44,  2.35s/it] 55%|█████▌    | 22/40 [01:10<01:00,  3.34s/it] 60%|██████    | 24/40 [01:20<01:03,  4.00s/it] 62%|██████▎   | 25/40 [01:37<01:38,  6.55s/it] 65%|██████▌   | 26/40 [01:37<01:13,  5.22s/it] 72%|███████▎  | 29/40 [01:57<01:04,  5.82s/it] 75%|███████▌  | 30/40 [01:57<00:48,  4.81s/it] 85%|████████▌ | 34/40 [01:58<00:14,  2.39s/it] 90%|█████████ | 36/40 [02:08<00:12,  3.15s/it] 92%|█████████▎| 37/40 [02:19<00:13,  4.44s/it]100%|██████████| 40/40 [02:19<00:00,  3.50s/it]
  0%|          | 0/100 [00:00<?, ?it/s]  5%|▌         | 5/100 [00:00<00:02, 43.61it/s]  5%|▌         | 5/100 [00:25<00:02, 43.61it/s]  8%|▊         | 8/100 [00:25<05:56,  3.88s/it]  9%|▉         | 9/100 [00:49<11:30,  7.59s/it] 10%|█         | 10/100 [00:50<09:10,  6.11s/it] 12%|█▏        | 12/100 [00:51<05:56,  4.05s/it] 12%|█▏        | 12/100 [01:06<05:56,  4.05s/it] 14%|█▍        | 14/100 [01:06<07:35,  5.30s/it] 16%|█▌        | 16/100 [01:06<05:04,  3.62s/it] 17%|█▋        | 17/100 [01:07<04:10,  3.02s/it] 18%|█▊        | 18/100 [01:07<03:23,  2.48s/it] 20%|██        | 20/100 [01:08<02:11,  1.65s/it] 21%|██        | 21/100 [01:09<01:53,  1.43s/it] 22%|██▏       | 22/100 [01:09<01:34,  1.21s/it] 25%|██▌       | 25/100 [01:19<02:54,  2.32s/it] 27%|██▋       | 27/100 [01:39<05:41,  4.67s/it] 28%|██▊       | 28/100 [01:58<08:55,  7.43s/it] 29%|██▉       | 29/100 [01:58<07:03,  5.96s/it] 31%|███       | 31/100 [01:59<04:23,  3.81s/it] 34%|███▍      | 34/100 [02:22<06:06,  5.56s/it] 35%|███▌      | 35/100 [02:36<07:34,  6.99s/it] 36%|███▌      | 36/100 [02:36<06:03,  5.68s/it] 40%|████      | 40/100 [02:36<02:39,  2.66s/it] 42%|████▏     | 42/100 [02:37<01:56,  2.01s/it] 44%|████▍     | 44/100 [02:46<02:29,  2.66s/it] 47%|████▋     | 47/100 [02:46<01:31,  1.72s/it] 49%|████▉     | 49/100 [02:54<01:59,  2.34s/it] 51%|█████     | 51/100 [02:55<01:27,  1.79s/it] 53%|█████▎    | 53/100 [02:55<01:04,  1.36s/it] 56%|█████▌    | 56/100 [03:09<01:53,  2.59s/it] 57%|█████▋    | 57/100 [03:29<03:39,  5.11s/it] 58%|█████▊    | 58/100 [03:29<03:00,  4.29s/it] 59%|█████▉    | 59/100 [03:30<02:24,  3.53s/it] 64%|██████▍   | 64/100 [03:30<00:52,  1.45s/it] 66%|██████▌   | 66/100 [03:30<00:38,  1.14s/it] 69%|██████▉   | 69/100 [03:31<00:25,  1.22it/s] 70%|███████   | 70/100 [03:31<00:23,  1.27it/s] 71%|███████   | 71/100 [03:32<00:22,  1.26it/s] 72%|███████▏  | 72/100 [03:33<00:19,  1.42it/s] 73%|███████▎  | 73/100 [03:33<00:17,  1.54it/s] 74%|███████▍  | 74/100 [03:38<00:41,  1.58s/it] 76%|███████▌  | 76/100 [03:38<00:25,  1.06s/it] 77%|███████▋  | 77/100 [03:39<00:21,  1.09it/s] 78%|███████▊  | 78/100 [04:03<02:26,  6.68s/it] 79%|███████▉  | 79/100 [04:04<01:46,  5.07s/it] 80%|████████  | 80/100 [04:04<01:16,  3.84s/it] 81%|████████  | 81/100 [04:05<00:54,  2.88s/it] 82%|████████▏ | 82/100 [04:06<00:42,  2.38s/it] 84%|████████▍ | 84/100 [04:06<00:22,  1.42s/it] 85%|████████▌ | 85/100 [04:07<00:18,  1.22s/it] 86%|████████▌ | 86/100 [04:07<00:14,  1.04s/it] 87%|████████▋ | 87/100 [04:08<00:11,  1.12it/s] 88%|████████▊ | 88/100 [04:08<00:09,  1.24it/s] 89%|████████▉ | 89/100 [04:09<00:07,  1.39it/s] 90%|█████████ | 90/100 [04:09<00:06,  1.57it/s] 91%|█████████ | 91/100 [04:10<00:05,  1.76it/s] 92%|█████████▏| 92/100 [04:28<00:46,  5.78s/it] 95%|█████████▌| 95/100 [04:29<00:13,  2.66s/it] 96%|█████████▌| 96/100 [04:29<00:08,  2.23s/it] 97%|█████████▋| 97/100 [04:30<00:05,  1.82s/it] 98%|█████████▊| 98/100 [04:30<00:02,  1.47s/it] 99%|█████████▉| 99/100 [04:30<00:01,  1.21s/it]100%|██████████| 100/100 [04:31<00:00,  1.00s/it]100%|██████████| 100/100 [04:31<00:00,  2.71s/it]
  0%|          | 0/10 [00:00<?, ?it/s] 10%|█         | 1/10 [01:06<09:54, 66.02s/it] 20%|██        | 2/10 [01:18<04:37, 34.63s/it] 30%|███       | 3/10 [02:00<04:24, 37.81s/it] 40%|████      | 4/10 [02:10<02:40, 26.77s/it] 50%|█████     | 5/10 [02:28<01:58, 23.62s/it] 60%|██████    | 6/10 [02:59<01:45, 26.34s/it] 70%|███████   | 7/10 [04:12<02:04, 41.52s/it] 80%|████████  | 8/10 [05:01<01:27, 43.81s/it] 90%|█████████ | 9/10 [05:48<00:44, 44.75s/it]100%|██████████| 10/10 [07:01<00:00, 53.48s/it]100%|██████████| 10/10 [07:01<00:00, 42.11s/it]
  0%|          | 0/40 [00:00<?, ?it/s]  8%|▊         | 3/40 [00:00<00:06,  5.32it/s] 10%|█         | 4/40 [00:00<00:08,  4.12it/s] 18%|█▊        | 7/40 [00:23<02:27,  4.46s/it] 20%|██        | 8/40 [00:33<03:02,  5.71s/it] 25%|██▌       | 10/40 [00:34<01:48,  3.63s/it] 30%|███       | 12/40 [00:34<01:08,  2.46s/it] 35%|███▌      | 14/40 [00:35<00:45,  1.73s/it] 38%|███▊      | 15/40 [00:35<00:37,  1.50s/it] 40%|████      | 16/40 [00:42<01:03,  2.65s/it] 52%|█████▎    | 21/40 [00:43<00:21,  1.13s/it] 55%|█████▌    | 22/40 [00:50<00:36,  2.02s/it] 60%|██████    | 24/40 [00:59<00:42,  2.66s/it] 62%|██████▎   | 25/40 [01:16<01:18,  5.21s/it] 65%|██████▌   | 26/40 [01:16<00:59,  4.26s/it] 72%|███████▎  | 29/40 [01:34<00:54,  4.97s/it] 75%|███████▌  | 30/40 [01:34<00:41,  4.15s/it] 85%|████████▌ | 34/40 [01:35<00:13,  2.18s/it] 90%|█████████ | 36/40 [01:45<00:11,  2.90s/it]100%|██████████| 40/40 [01:45<00:00,  2.64s/it]
  0%|          | 0/10 [00:00<?, ?it/s] 10%|█         | 1/10 [00:06<01:00,  6.67s/it] 20%|██        | 2/10 [01:06<05:05, 38.16s/it] 30%|███       | 3/10 [01:24<03:22, 28.88s/it] 40%|████      | 4/10 [01:50<02:46, 27.69s/it] 50%|█████     | 5/10 [02:25<02:32, 30.45s/it] 60%|██████    | 6/10 [02:50<01:54, 28.53s/it] 70%|███████   | 7/10 [03:16<01:23, 27.79s/it] 80%|████████  | 8/10 [04:14<01:14, 37.17s/it] 90%|█████████ | 9/10 [04:34<00:31, 31.85s/it]100%|██████████| 10/10 [05:18<00:00, 35.71s/it]100%|██████████| 10/10 [05:18<00:00, 31.87s/it]
  0%|          | 0/40 [00:00<?, ?it/s]  8%|▊         | 3/40 [00:00<00:07,  4.84it/s] 10%|█         | 4/40 [00:01<00:09,  3.69it/s] 15%|█▌        | 6/40 [00:01<00:07,  4.43it/s] 18%|█▊        | 7/40 [00:23<03:13,  5.85s/it] 20%|██        | 8/40 [00:37<04:11,  7.87s/it] 25%|██▌       | 10/40 [00:37<02:17,  4.58s/it] 28%|██▊       | 11/40 [00:40<02:01,  4.18s/it] 30%|███       | 12/40 [00:41<01:31,  3.28s/it] 35%|███▌      | 14/40 [00:41<00:52,  2.01s/it] 38%|███▊      | 15/40 [00:42<00:41,  1.66s/it] 40%|████      | 16/40 [00:51<01:23,  3.47s/it] 48%|████▊     | 19/40 [01:10<01:46,  5.09s/it] 50%|█████     | 20/40 [01:18<01:51,  5.59s/it] 52%|█████▎    | 21/40 [01:19<01:25,  4.52s/it] 55%|█████▌    | 22/40 [01:40<02:35,  8.63s/it] 60%|██████    | 24/40 [01:50<01:54,  7.16s/it] 62%|██████▎   | 25/40 [01:58<01:49,  7.29s/it] 65%|██████▌   | 26/40 [01:59<01:18,  5.62s/it] 72%|███████▎  | 29/40 [01:59<00:31,  2.87s/it] 75%|███████▌  | 30/40 [02:00<00:24,  2.44s/it] 85%|████████▌ | 34/40 [02:00<00:07,  1.21s/it] 90%|█████████ | 36/40 [02:09<00:07,  1.99s/it] 92%|█████████▎| 37/40 [02:17<00:09,  3.13s/it]100%|██████████| 40/40 [02:28<00:00,  3.34s/it]100%|██████████| 40/40 [02:28<00:00,  3.72s/it]
  0%|          | 0/100 [00:00<?, ?it/s]  5%|▌         | 5/100 [00:00<00:02, 43.63it/s]  5%|▌         | 5/100 [00:20<00:02, 43.63it/s]  8%|▊         | 8/100 [00:20<04:55,  3.21s/it]  9%|▉         | 9/100 [00:34<07:44,  5.11s/it] 10%|█         | 10/100 [00:35<06:12,  4.14s/it] 12%|█▏        | 12/100 [00:36<04:08,  2.82s/it] 14%|█▍        | 14/100 [00:36<02:49,  1.97s/it] 16%|█▌        | 16/100 [00:37<01:56,  1.39s/it] 17%|█▋        | 17/100 [00:37<01:42,  1.23s/it] 18%|█▊        | 18/100 [00:38<01:28,  1.08s/it] 21%|██        | 21/100 [00:38<00:51,  1.52it/s] 22%|██▏       | 22/100 [00:39<00:48,  1.61it/s] 25%|██▌       | 25/100 [00:48<02:09,  1.73s/it] 27%|██▋       | 27/100 [01:06<04:39,  3.82s/it] 28%|██▊       | 28/100 [01:23<07:20,  6.11s/it] 29%|██▉       | 29/100 [01:23<05:55,  5.01s/it] 31%|███       | 31/100 [01:24<03:44,  3.26s/it] 34%|███▍      | 34/100 [01:47<05:47,  5.27s/it] 35%|███▌      | 35/100 [02:01<07:20,  6.77s/it] 36%|███▌      | 36/100 [02:02<05:52,  5.51s/it] 40%|████      | 40/100 [02:02<02:36,  2.60s/it] 42%|████▏     | 42/100 [02:02<01:53,  1.95s/it] 44%|████▍     | 44/100 [02:12<02:34,  2.76s/it] 47%|████▋     | 47/100 [02:12<01:34,  1.78s/it] 49%|████▉     | 49/100 [02:24<02:26,  2.87s/it] 51%|█████     | 51/100 [02:25<01:45,  2.16s/it] 53%|█████▎    | 53/100 [02:25<01:16,  1.63s/it] 56%|█████▌    | 56/100 [02:26<00:48,  1.11s/it] 57%|█████▋    | 57/100 [02:40<02:09,  3.02s/it] 58%|█████▊    | 58/100 [02:40<01:47,  2.57s/it] 59%|█████▉    | 59/100 [02:41<01:28,  2.15s/it] 64%|██████▍   | 64/100 [02:41<00:32,  1.12it/s] 66%|██████▌   | 66/100 [02:41<00:24,  1.37it/s] 69%|██████▉   | 69/100 [02:42<00:16,  1.92it/s] 71%|███████   | 71/100 [02:44<00:19,  1.48it/s] 72%|███████▏  | 72/100 [02:44<00:17,  1.59it/s] 73%|███████▎  | 73/100 [02:45<00:16,  1.63it/s] 74%|███████▍  | 74/100 [02:45<00:15,  1.70it/s] 76%|███████▌  | 76/100 [02:46<00:11,  2.16it/s] 77%|███████▋  | 77/100 [02:46<00:10,  2.23it/s] 78%|███████▊  | 78/100 [03:07<01:49,  5.00s/it] 79%|███████▉  | 79/100 [03:07<01:21,  3.86s/it] 80%|████████  | 80/100 [03:08<00:59,  2.98s/it] 81%|████████  | 81/100 [03:08<00:43,  2.30s/it] 82%|████████▏ | 82/100 [03:08<00:32,  1.79s/it] 84%|████████▍ | 84/100 [03:09<00:17,  1.10s/it] 85%|████████▌ | 85/100 [03:10<00:15,  1.05s/it] 86%|████████▌ | 86/100 [03:10<00:12,  1.11it/s] 87%|████████▋ | 87/100 [03:11<00:10,  1.27it/s] 88%|████████▊ | 88/100 [03:11<00:08,  1.37it/s] 89%|████████▉ | 89/100 [03:12<00:07,  1.42it/s] 90%|█████████ | 90/100 [03:12<00:06,  1.64it/s] 91%|█████████ | 91/100 [03:13<00:04,  1.84it/s] 92%|█████████▏| 92/100 [03:13<00:04,  1.76it/s] 93%|█████████▎| 93/100 [03:14<00:03,  1.90it/s] 95%|█████████▌| 95/100 [03:14<00:01,  2.52it/s] 96%|█████████▌| 96/100 [03:15<00:01,  2.32it/s] 97%|█████████▋| 97/100 [03:15<00:01,  2.37it/s] 98%|█████████▊| 98/100 [03:16<00:00,  2.25it/s] 99%|█████████▉| 99/100 [03:16<00:00,  2.36it/s]100%|██████████| 100/100 [03:17<00:00,  2.33it/s]100%|██████████| 100/100 [03:17<00:00,  1.97s/it]
  0%|          | 0/10 [00:00<?, ?it/s] 10%|█         | 1/10 [00:51<07:45, 51.67s/it] 20%|██        | 2/10 [01:20<05:07, 38.47s/it] 30%|███       | 3/10 [01:44<03:41, 31.69s/it] 40%|████      | 4/10 [02:11<02:59, 29.86s/it] 50%|█████     | 5/10 [02:43<02:32, 30.48s/it] 60%|██████    | 6/10 [02:59<01:43, 25.78s/it] 70%|███████   | 7/10 [04:05<01:56, 38.99s/it] 80%|████████  | 8/10 [04:17<01:00, 30.17s/it] 90%|█████████ | 9/10 [06:38<01:04, 64.79s/it]100%|██████████| 10/10 [07:16<00:00, 56.75s/it]100%|██████████| 10/10 [07:16<00:00, 43.70s/it]
  0%|          | 0/40 [00:00<?, ?it/s] 10%|█         | 4/40 [00:00<00:04,  8.65it/s] 18%|█▊        | 7/40 [00:12<01:11,  2.16s/it] 20%|██        | 8/40 [00:20<01:44,  3.26s/it] 30%|███       | 12/40 [00:37<01:44,  3.73s/it] 35%|███▌      | 14/40 [00:37<01:12,  2.78s/it] 40%|████      | 16/40 [00:43<01:09,  2.89s/it] 52%|█████▎    | 21/40 [00:55<00:50,  2.65s/it] 55%|█████▌    | 22/40 [01:04<01:01,  3.40s/it] 60%|██████    | 24/40 [01:13<00:58,  3.66s/it] 62%|██████▎   | 25/40 [01:38<01:46,  7.09s/it] 65%|██████▌   | 26/40 [01:39<01:22,  5.88s/it] 72%|███████▎  | 29/40 [01:47<00:49,  4.47s/it] 75%|███████▌  | 30/40 [01:47<00:38,  3.80s/it] 85%|████████▌ | 34/40 [01:47<00:11,  1.92s/it] 85%|████████▌ | 34/40 [01:58<00:11,  1.92s/it] 90%|█████████ | 36/40 [01:58<00:11,  2.84s/it]100%|██████████| 40/40 [01:58<00:00,  2.97s/it]
  0%|          | 0/10 [00:00<?, ?it/s] 10%|█         | 1/10 [00:10<01:32, 10.31s/it] 20%|██        | 2/10 [00:43<03:11, 23.94s/it] 30%|███       | 3/10 [01:09<02:53, 24.74s/it] 40%|████      | 4/10 [01:27<02:11, 21.99s/it] 50%|█████     | 5/10 [01:46<01:44, 20.84s/it] 60%|██████    | 6/10 [02:09<01:27, 21.90s/it] 70%|███████   | 7/10 [03:29<02:02, 40.67s/it] 80%|████████  | 8/10 [03:47<01:06, 33.44s/it] 90%|█████████ | 9/10 [04:25<00:35, 35.05s/it]100%|██████████| 10/10 [05:03<00:00, 35.70s/it]100%|██████████| 10/10 [05:03<00:00, 30.30s/it]
  0%|          | 0/40 [00:00<?, ?it/s]  8%|▊         | 3/40 [00:00<00:09,  3.96it/s] 10%|█         | 4/40 [00:01<00:13,  2.67it/s] 15%|█▌        | 6/40 [00:01<00:09,  3.53it/s] 18%|█▊        | 7/40 [00:18<02:29,  4.53s/it] 20%|██        | 8/40 [00:41<05:03,  9.49s/it] 25%|██▌       | 10/40 [00:42<02:46,  5.56s/it] 28%|██▊       | 11/40 [00:43<02:06,  4.36s/it] 30%|███       | 12/40 [00:43<01:35,  3.39s/it] 35%|███▌      | 14/40 [00:44<00:54,  2.11s/it] 38%|███▊      | 15/40 [00:44<00:44,  1.77s/it] 40%|████      | 16/40 [00:55<01:33,  3.88s/it] 48%|████▊     | 19/40 [00:55<00:42,  2.00s/it] 50%|█████     | 20/40 [01:07<01:19,  3.99s/it] 52%|█████▎    | 21/40 [01:08<01:01,  3.25s/it] 55%|█████▌    | 22/40 [01:31<02:23,  7.94s/it] 57%|█████▊    | 23/40 [01:56<03:28, 12.25s/it] 60%|██████    | 24/40 [02:07<03:09, 11.83s/it] 62%|██████▎   | 25/40 [02:07<02:11,  8.75s/it] 65%|██████▌   | 26/40 [02:08<01:30,  6.44s/it] 70%|███████   | 28/40 [02:16<01:03,  5.31s/it] 72%|███████▎  | 29/40 [02:16<00:46,  4.19s/it] 75%|███████▌  | 30/40 [02:17<00:32,  3.24s/it] 82%|████████▎ | 33/40 [02:17<00:11,  1.64s/it] 85%|████████▌ | 34/40 [02:18<00:08,  1.42s/it] 88%|████████▊ | 35/40 [02:18<00:06,  1.22s/it] 90%|█████████ | 36/40 [02:42<00:26,  6.64s/it] 92%|█████████▎| 37/40 [02:55<00:24,  8.17s/it]100%|██████████| 40/40 [03:06<00:00,  5.87s/it]100%|██████████| 40/40 [03:06<00:00,  4.66s/it]
  0%|          | 0/100 [00:00<?, ?it/s]  1%|          | 1/100 [00:26<43:38, 26.45s/it]  2%|▏         | 2/100 [00:36<27:23, 16.77s/it]  6%|▌         | 6/100 [00:37<06:12,  3.96s/it]  7%|▋         | 7/100 [00:37<04:57,  3.20s/it]  8%|▊         | 8/100 [00:38<04:01,  2.63s/it]  9%|▉         | 9/100 [00:38<03:14,  2.13s/it] 10%|█         | 10/100 [00:39<02:32,  1.70s/it] 11%|█         | 11/100 [00:39<02:01,  1.37s/it] 12%|█▏        | 12/100 [00:40<01:37,  1.11s/it] 13%|█▎        | 13/100 [01:04<11:08,  7.69s/it] 14%|█▍        | 14/100 [01:04<08:00,  5.59s/it] 16%|█▌        | 16/100 [01:05<04:25,  3.16s/it] 17%|█▋        | 17/100 [01:05<03:28,  2.51s/it] 18%|█▊        | 18/100 [01:06<02:42,  1.98s/it] 20%|██        | 20/100 [01:06<01:37,  1.22s/it] 21%|██        | 21/100 [01:07<01:23,  1.05s/it] 22%|██▏       | 22/100 [01:07<01:10,  1.11it/s] 25%|██▌       | 25/100 [01:15<02:20,  1.87s/it] 27%|██▋       | 27/100 [01:16<01:39,  1.37s/it] 28%|██▊       | 28/100 [01:29<04:14,  3.53s/it] 29%|██▉       | 29/100 [01:30<03:31,  2.97s/it] 31%|███       | 31/100 [01:30<02:15,  1.96s/it] 34%|███▍      | 34/100 [01:55<05:10,  4.71s/it] 35%|███▌      | 35/100 [01:56<04:22,  4.04s/it] 36%|███▌      | 36/100 [01:56<03:31,  3.30s/it] 39%|███▉      | 39/100 [01:56<01:53,  1.86s/it] 41%|████      | 41/100 [01:57<01:21,  1.38s/it] 44%|████▍     | 44/100 [02:13<02:42,  2.90s/it] 46%|████▌     | 46/100 [04:37<19:38, 21.83s/it] 47%|████▋     | 47/100 [04:37<16:12, 18.34s/it] 48%|████▊     | 48/100 [04:38<12:57, 14.96s/it] 49%|████▉     | 49/100 [05:02<14:27, 17.02s/it] 51%|█████     | 51/100 [05:03<08:43, 10.69s/it] 53%|█████▎    | 53/100 [05:04<05:30,  7.03s/it] 56%|█████▌    | 56/100 [05:04<03:01,  4.13s/it] 57%|█████▋    | 57/100 [05:05<02:32,  3.54s/it] 58%|█████▊    | 58/100 [05:05<02:03,  2.94s/it] 59%|█████▉    | 59/100 [05:06<01:39,  2.43s/it] 64%|██████▍   | 64/100 [05:06<00:34,  1.04it/s] 66%|██████▌   | 66/100 [05:15<01:01,  1.80s/it] 69%|██████▉   | 69/100 [05:15<00:37,  1.21s/it] 70%|███████   | 70/100 [05:16<00:33,  1.12s/it] 71%|███████   | 71/100 [05:17<00:33,  1.15s/it] 72%|███████▏  | 72/100 [05:17<00:28,  1.01s/it] 73%|███████▎  | 73/100 [05:18<00:24,  1.10it/s] 74%|███████▍  | 74/100 [05:18<00:20,  1.26it/s] 76%|███████▌  | 76/100 [05:19<00:13,  1.73it/s] 77%|███████▋  | 77/100 [05:19<00:12,  1.81it/s] 78%|███████▊  | 78/100 [05:36<01:40,  4.56s/it] 79%|███████▉  | 79/100 [05:37<01:13,  3.48s/it] 80%|████████  | 80/100 [05:37<00:53,  2.69s/it] 81%|████████  | 81/100 [05:38<00:40,  2.13s/it] 82%|████████▏ | 82/100 [05:38<00:30,  1.68s/it] 83%|████████▎ | 83/100 [05:39<00:24,  1.43s/it] 84%|████████▍ | 84/100 [05:40<00:18,  1.16s/it] 85%|████████▌ | 85/100 [05:40<00:14,  1.05it/s] 86%|████████▌ | 86/100 [05:41<00:11,  1.27it/s] 87%|████████▋ | 87/100 [05:41<00:08,  1.45it/s] 88%|████████▊ | 88/100 [05:42<00:07,  1.55it/s] 89%|████████▉ | 89/100 [05:42<00:06,  1.69it/s] 90%|█████████ | 90/100 [05:43<00:05,  1.81it/s] 91%|█████████ | 91/100 [05:43<00:04,  1.82it/s] 92%|█████████▏| 92/100 [05:44<00:04,  1.83it/s] 93%|█████████▎| 93/100 [05:44<00:03,  1.98it/s] 94%|█████████▍| 94/100 [05:44<00:02,  2.03it/s] 95%|█████████▌| 95/100 [05:45<00:02,  1.99it/s] 96%|█████████▌| 96/100 [05:46<00:02,  1.98it/s] 97%|█████████▋| 97/100 [05:46<00:01,  2.12it/s] 98%|█████████▊| 98/100 [05:46<00:00,  2.15it/s] 99%|█████████▉| 99/100 [05:47<00:00,  2.21it/s]100%|██████████| 100/100 [05:47<00:00,  2.09it/s]100%|██████████| 100/100 [05:47<00:00,  3.48s/it]
  0%|          | 0/10 [00:00<?, ?it/s] 10%|█         | 1/10 [00:37<05:33, 37.08s/it] 20%|██        | 2/10 [00:56<03:31, 26.49s/it] 30%|███       | 3/10 [01:14<02:39, 22.74s/it] 40%|████      | 4/10 [01:32<02:04, 20.72s/it] 50%|█████     | 5/10 [02:19<02:31, 30.24s/it] 60%|██████    | 6/10 [02:59<02:14, 33.57s/it] 70%|███████   | 7/10 [03:12<01:20, 26.96s/it] 80%|████████  | 8/10 [04:06<01:11, 35.60s/it] 90%|█████████ | 9/10 [04:46<00:36, 36.99s/it]100%|██████████| 10/10 [05:27<00:00, 38.02s/it]100%|██████████| 10/10 [05:27<00:00, 32.70s/it]
  0%|          | 0/40 [00:00<?, ?it/s]  8%|▊         | 3/40 [00:00<00:06,  5.65it/s] 10%|█         | 4/40 [00:00<00:08,  4.31it/s] 18%|█▊        | 7/40 [00:25<02:42,  4.94s/it] 20%|██        | 8/40 [00:34<03:02,  5.71s/it] 25%|██▌       | 10/40 [00:34<01:48,  3.62s/it] 30%|███       | 12/40 [00:36<01:14,  2.66s/it] 35%|███▌      | 14/40 [00:37<00:48,  1.86s/it] 38%|███▊      | 15/40 [00:37<00:39,  1.56s/it] 40%|████      | 16/40 [00:47<01:23,  3.48s/it] 48%|████▊     | 19/40 [01:14<02:07,  6.08s/it] 50%|█████     | 20/40 [01:20<02:02,  6.11s/it] 52%|█████▎    | 21/40 [01:21<01:34,  4.96s/it] 55%|█████▌    | 22/40 [01:32<01:56,  6.46s/it] 60%|██████    | 24/40 [01:41<01:30,  5.65s/it] 62%|██████▎   | 25/40 [01:55<01:50,  7.35s/it] 65%|██████▌   | 26/40 [01:55<01:19,  5.69s/it] 72%|███████▎  | 29/40 [02:08<00:55,  5.06s/it] 75%|███████▌  | 30/40 [02:09<00:41,  4.15s/it] 85%|████████▌ | 34/40 [02:09<00:12,  2.03s/it] 90%|█████████ | 36/40 [02:24<00:13,  3.43s/it] 92%|█████████▎| 37/40 [02:34<00:13,  4.50s/it]100%|██████████| 40/40 [02:34<00:00,  3.85s/it]
  0%|          | 0/10 [00:00<?, ?it/s] 10%|█         | 1/10 [00:28<04:14, 28.25s/it] 20%|██        | 2/10 [01:28<06:17, 47.17s/it] 30%|███       | 3/10 [02:01<04:44, 40.66s/it] 40%|████      | 4/10 [02:24<03:20, 33.48s/it] 50%|█████     | 5/10 [02:52<02:37, 31.51s/it] 60%|██████    | 6/10 [03:53<02:46, 41.72s/it] 70%|███████   | 7/10 [04:10<01:40, 33.62s/it] 80%|████████  | 8/10 [05:07<01:22, 41.02s/it] 90%|█████████ | 9/10 [05:15<00:30, 30.69s/it]100%|██████████| 10/10 [06:03<00:00, 36.19s/it]100%|██████████| 10/10 [06:03<00:00, 36.39s/it]
  0%|          | 0/40 [00:00<?, ?it/s]  8%|▊         | 3/40 [00:00<00:07,  5.05it/s] 10%|█         | 4/40 [00:01<00:09,  3.72it/s] 18%|█▊        | 7/40 [00:20<02:07,  3.88s/it] 20%|██        | 8/40 [00:32<03:03,  5.74s/it] 25%|██▌       | 10/40 [00:33<01:49,  3.64s/it] 30%|███       | 12/40 [00:33<01:08,  2.45s/it] 35%|███▌      | 14/40 [00:34<00:44,  1.71s/it] 38%|███▊      | 15/40 [00:34<00:36,  1.45s/it] 40%|████      | 16/40 [00:45<01:23,  3.46s/it] 48%|████▊     | 19/40 [01:10<02:02,  5.81s/it] 50%|█████     | 20/40 [01:17<02:00,  6.01s/it] 52%|█████▎    | 21/40 [01:18<01:32,  4.89s/it] 55%|█████▌    | 22/40 [01:40<02:41,  8.99s/it] 57%|█████▊    | 23/40 [02:04<03:35, 12.69s/it] 60%|██████    | 24/40 [02:15<03:16, 12.30s/it] 62%|██████▎   | 25/40 [02:27<02:59, 11.97s/it] 65%|██████▌   | 26/40 [02:28<02:06,  9.05s/it] 72%|███████▎  | 29/40 [02:37<01:02,  5.69s/it] 75%|███████▌  | 30/40 [02:37<00:46,  4.60s/it] 85%|████████▌ | 34/40 [02:38<00:13,  2.19s/it] 90%|█████████ | 36/40 [02:46<00:11,  2.79s/it] 92%|█████████▎| 37/40 [02:56<00:11,  3.89s/it]100%|██████████| 40/40 [03:02<00:00,  3.17s/it]100%|██████████| 40/40 [03:02<00:00,  4.57s/it]
  0%|          | 0/10 [00:00<?, ?it/s] 10%|█         | 1/10 [00:14<02:06, 14.08s/it] 20%|██        | 2/10 [00:55<04:01, 30.20s/it] 30%|███       | 3/10 [01:14<02:55, 25.12s/it] 40%|████      | 4/10 [02:46<05:08, 51.46s/it] 50%|█████     | 5/10 [03:17<03:40, 44.04s/it] 60%|██████    | 6/10 [03:36<02:21, 35.42s/it] 70%|███████   | 7/10 [06:05<03:38, 72.79s/it] 80%|████████  | 8/10 [06:19<01:47, 53.85s/it] 90%|█████████ | 9/10 [06:53<00:47, 47.67s/it]100%|██████████| 10/10 [07:36<00:00, 46.41s/it]100%|██████████| 10/10 [07:36<00:00, 45.68s/it]
  0%|          | 0/40 [00:00<?, ?it/s]  8%|▊         | 3/40 [00:01<00:14,  2.57it/s] 10%|█         | 4/40 [00:01<00:14,  2.46it/s] 15%|█▌        | 6/40 [00:01<00:10,  3.30it/s] 18%|█▊        | 7/40 [00:20<02:47,  5.07s/it] 20%|██        | 8/40 [00:40<04:47,  8.99s/it] 25%|██▌       | 10/40 [00:41<02:35,  5.20s/it] 28%|██▊       | 11/40 [00:41<01:57,  4.06s/it] 30%|███       | 12/40 [00:42<01:28,  3.15s/it] 35%|███▌      | 14/40 [00:43<00:54,  2.08s/it] 38%|███▊      | 15/40 [00:43<00:44,  1.77s/it] 40%|████      | 16/40 [00:53<01:27,  3.66s/it] 48%|████▊     | 19/40 [00:54<00:39,  1.90s/it] 50%|█████     | 20/40 [01:05<01:15,  3.78s/it] 52%|█████▎    | 21/40 [01:06<00:58,  3.06s/it] 55%|█████▌    | 22/40 [01:28<02:18,  7.68s/it] 57%|█████▊    | 23/40 [01:48<03:03, 10.82s/it] 60%|██████    | 24/40 [02:02<03:06, 11.68s/it] 62%|██████▎   | 25/40 [02:03<02:09,  8.63s/it] 65%|██████▌   | 26/40 [02:03<01:29,  6.40s/it] 70%|███████   | 28/40 [02:27<01:46,  8.89s/it] 72%|███████▎  | 29/40 [02:28<01:15,  6.86s/it] 75%|███████▌  | 30/40 [02:28<00:52,  5.20s/it] 82%|████████▎ | 33/40 [02:29<00:17,  2.56s/it] 85%|████████▌ | 34/40 [02:29<00:12,  2.13s/it] 88%|████████▊ | 35/40 [02:30<00:08,  1.75s/it] 90%|█████████ | 36/40 [02:52<00:27,  6.86s/it] 92%|█████████▎| 37/40 [03:06<00:25,  8.59s/it]100%|██████████| 40/40 [03:19<00:00,  6.28s/it]100%|██████████| 40/40 [03:19<00:00,  4.98s/it]
  0%|          | 0/10 [00:00<?, ?it/s] 10%|█         | 1/10 [00:23<03:30, 23.38s/it] 20%|██        | 2/10 [00:53<03:39, 27.38s/it] 30%|███       | 3/10 [01:41<04:16, 36.57s/it] 40%|████      | 4/10 [02:31<04:13, 42.20s/it] 50%|█████     | 5/10 [03:24<03:49, 45.81s/it] 60%|██████    | 6/10 [03:52<02:39, 39.79s/it] 70%|███████   | 7/10 [04:46<02:13, 44.57s/it] 80%|████████  | 8/10 [05:23<01:24, 42.22s/it] 90%|█████████ | 9/10 [06:24<00:47, 47.99s/it]100%|██████████| 10/10 [07:00<00:00, 44.15s/it]100%|██████████| 10/10 [07:00<00:00, 42.00s/it]
  0%|          | 0/40 [00:00<?, ?it/s]  8%|▊         | 3/40 [00:00<00:10,  3.60it/s] 10%|█         | 4/40 [00:01<00:11,  3.23it/s] 18%|█▊        | 7/40 [00:12<01:14,  2.24s/it] 20%|██        | 8/40 [00:20<01:57,  3.67s/it] 25%|██▌       | 10/40 [00:21<01:12,  2.42s/it] 30%|███       | 12/40 [00:22<00:47,  1.68s/it] 35%|███▌      | 14/40 [00:23<00:31,  1.23s/it] 38%|███▊      | 15/40 [00:23<00:27,  1.10s/it] 40%|████      | 16/40 [00:31<01:03,  2.66s/it] 50%|█████     | 20/40 [00:37<00:39,  2.00s/it] 52%|█████▎    | 21/40 [00:38<00:33,  1.78s/it] 55%|█████▌    | 22/40 [00:47<00:56,  3.13s/it] 60%|██████    | 24/40 [00:56<00:57,  3.58s/it] 62%|██████▎   | 25/40 [01:16<01:43,  6.87s/it] 65%|██████▌   | 26/40 [01:16<01:16,  5.46s/it] 72%|███████▎  | 29/40 [01:36<01:06,  6.03s/it] 75%|███████▌  | 30/40 [01:37<00:50,  5.02s/it] 85%|████████▌ | 34/40 [01:37<00:14,  2.49s/it] 92%|█████████▎| 37/40 [01:46<00:07,  2.64s/it]100%|██████████| 40/40 [01:46<00:00,  2.67s/it]
  0%|          | 0/10 [00:00<?, ?it/s] 10%|█         | 1/10 [00:51<07:39, 51.03s/it] 20%|██        | 2/10 [01:31<05:56, 44.55s/it] 30%|███       | 3/10 [02:04<04:35, 39.30s/it] 40%|████      | 4/10 [02:16<02:51, 28.50s/it] 50%|█████     | 5/10 [10:31<16:23, 196.73s/it] 60%|██████    | 6/10 [10:59<09:18, 139.67s/it] 70%|███████   | 7/10 [11:33<05:14, 104.97s/it] 80%|████████  | 8/10 [12:04<02:43, 81.53s/it]  90%|█████████ | 9/10 [12:27<01:03, 63.15s/it]100%|██████████| 10/10 [13:02<00:00, 54.52s/it]100%|██████████| 10/10 [13:02<00:00, 78.28s/it]
  0%|          | 0/40 [00:00<?, ?it/s]  8%|▊         | 3/40 [00:00<00:07,  4.98it/s] 10%|█         | 4/40 [00:01<00:13,  2.69it/s] 15%|█▌        | 6/40 [00:01<00:09,  3.45it/s] 18%|█▊        | 7/40 [00:27<03:39,  6.66s/it] 20%|██        | 8/40 [00:45<05:15,  9.85s/it] 25%|██▌       | 10/40 [00:46<02:51,  5.71s/it] 30%|███       | 12/40 [00:46<01:42,  3.65s/it] 35%|███▌      | 14/40 [00:47<01:04,  2.47s/it] 38%|███▊      | 15/40 [00:47<00:51,  2.07s/it] 40%|████      | 16/40 [00:56<01:23,  3.48s/it] 48%|████▊     | 19/40 [01:16<01:47,  5.12s/it] 50%|█████     | 20/40 [01:28<02:06,  6.33s/it] 52%|█████▎    | 21/40 [01:28<01:37,  5.13s/it] 55%|█████▌    | 22/40 [01:50<02:41,  8.96s/it] 57%|█████▊    | 23/40 [02:11<03:24, 12.01s/it] 60%|██████    | 24/40 [02:22<03:06, 11.67s/it] 62%|██████▎   | 25/40 [02:26<02:25,  9.72s/it] 65%|██████▌   | 26/40 [02:28<01:42,  7.31s/it] 68%|██████▊   | 27/40 [02:28<01:09,  5.37s/it] 72%|███████▎  | 29/40 [02:29<00:34,  3.10s/it] 75%|███████▌  | 30/40 [02:29<00:24,  2.46s/it] 85%|████████▌ | 34/40 [02:30<00:06,  1.11s/it] 90%|█████████ | 36/40 [02:42<00:10,  2.61s/it] 92%|█████████▎| 37/40 [02:52<00:11,  3.80s/it]100%|██████████| 40/40 [03:00<00:00,  3.37s/it]100%|██████████| 40/40 [03:00<00:00,  4.51s/it]
  0%|          | 0/10 [00:00<?, ?it/s] 10%|█         | 1/10 [00:14<02:08, 14.22s/it] 20%|██        | 2/10 [00:35<02:27, 18.44s/it] 30%|███       | 3/10 [01:18<03:26, 29.43s/it] 40%|████      | 4/10 [01:33<02:22, 23.78s/it] 50%|█████     | 5/10 [02:28<02:54, 34.99s/it] 60%|██████    | 6/10 [04:10<03:51, 57.76s/it] 70%|███████   | 7/10 [04:44<02:30, 50.08s/it] 80%|████████  | 8/10 [05:00<01:18, 39.28s/it] 90%|█████████ | 9/10 [05:43<00:40, 40.52s/it]100%|██████████| 10/10 [06:19<00:00, 39.12s/it]100%|██████████| 10/10 [06:19<00:00, 37.97s/it]
  0%|          | 0/40 [00:00<?, ?it/s] 10%|█         | 4/40 [00:00<00:03,  9.06it/s] 18%|█▊        | 7/40 [00:14<01:20,  2.43s/it] 20%|██        | 8/40 [00:28<02:33,  4.78s/it] 30%|███       | 12/40 [00:52<02:31,  5.41s/it] 35%|███▌      | 14/40 [00:53<01:44,  4.01s/it] 40%|████      | 16/40 [01:04<01:46,  4.44s/it] 52%|█████▎    | 21/40 [01:23<01:18,  4.13s/it] 55%|█████▌    | 22/40 [01:34<01:30,  5.02s/it] 62%|██████▎   | 25/40 [01:51<01:18,  5.25s/it] 65%|██████▌   | 26/40 [02:16<01:52,  8.06s/it] 72%|███████▎  | 29/40 [02:25<01:07,  6.14s/it] 75%|███████▌  | 30/40 [02:42<01:18,  7.86s/it] 85%|████████▌ | 34/40 [02:42<00:25,  4.21s/it] 85%|████████▌ | 34/40 [02:53<00:25,  4.21s/it] 90%|█████████ | 36/40 [02:53<00:17,  4.42s/it] 92%|█████████▎| 37/40 [03:01<00:15,  5.10s/it]100%|██████████| 40/40 [03:02<00:00,  4.55s/it]
  0%|          | 0/10 [00:00<?, ?it/s] 10%|█         | 1/10 [00:43<06:27, 43.03s/it] 20%|██        | 2/10 [01:17<05:03, 37.91s/it] 30%|███       | 3/10 [01:27<02:56, 25.18s/it] 40%|████      | 4/10 [01:31<01:41, 16.98s/it] 50%|█████     | 5/10 [01:50<01:27, 17.49s/it] 60%|██████    | 6/10 [02:20<01:27, 21.93s/it] 70%|███████   | 7/10 [02:36<01:00, 20.05s/it] 80%|████████  | 8/10 [03:11<00:49, 24.57s/it] 90%|█████████ | 9/10 [03:51<00:29, 29.44s/it]100%|██████████| 10/10 [04:34<00:00, 33.71s/it]100%|██████████| 10/10 [04:34<00:00, 27.46s/it]
  0%|          | 0/40 [00:00<?, ?it/s]  8%|▊         | 3/40 [00:00<00:05,  6.32it/s] 10%|█         | 4/40 [00:00<00:09,  3.98it/s] 18%|█▊        | 7/40 [00:22<02:18,  4.21s/it] 20%|██        | 8/40 [00:35<03:14,  6.09s/it] 25%|██▌       | 10/40 [00:35<01:57,  3.93s/it] 28%|██▊       | 11/40 [00:36<01:32,  3.18s/it] 30%|███       | 12/40 [00:36<01:12,  2.57s/it] 35%|███▌      | 14/40 [00:37<00:43,  1.66s/it] 38%|███▊      | 15/40 [00:37<00:34,  1.39s/it] 40%|████      | 16/40 [00:46<01:16,  3.21s/it] 48%|████▊     | 19/40 [01:08<01:50,  5.24s/it] 50%|█████     | 20/40 [01:12<01:38,  4.94s/it] 52%|█████▎    | 21/40 [01:13<01:19,  4.17s/it] 55%|█████▌    | 22/40 [01:37<02:41,  8.96s/it] 57%|█████▊    | 23/40 [02:02<03:37, 12.78s/it] 60%|██████    | 24/40 [02:13<03:18, 12.38s/it] 62%|██████▎   | 25/40 [02:21<02:49, 11.33s/it] 65%|██████▌   | 26/40 [02:22<01:55,  8.27s/it] 72%|███████▎  | 29/40 [02:22<00:42,  3.87s/it] 75%|███████▌  | 30/40 [02:23<00:31,  3.16s/it] 85%|████████▌ | 34/40 [02:24<00:09,  1.54s/it] 90%|█████████ | 36/40 [02:33<00:09,  2.41s/it] 92%|█████████▎| 37/40 [02:43<00:11,  3.68s/it]100%|██████████| 40/40 [02:53<00:00,  3.56s/it]100%|██████████| 40/40 [02:53<00:00,  4.34s/it]
  0%|          | 0/10 [00:00<?, ?it/s] 10%|█         | 1/10 [00:10<01:32, 10.32s/it] 20%|██        | 2/10 [00:46<03:22, 25.26s/it] 30%|███       | 3/10 [01:17<03:15, 27.88s/it] 40%|████      | 4/10 [01:44<02:46, 27.76s/it] 50%|█████     | 5/10 [02:27<02:46, 33.27s/it] 60%|██████    | 6/10 [03:16<02:33, 38.43s/it] 70%|███████   | 7/10 [03:58<01:59, 39.88s/it] 80%|████████  | 8/10 [04:31<01:14, 37.46s/it] 90%|█████████ | 9/10 [05:25<00:42, 42.66s/it]100%|██████████| 10/10 [05:52<00:00, 37.73s/it]100%|██████████| 10/10 [05:52<00:00, 35.20s/it]
  0%|          | 0/40 [00:00<?, ?it/s]  8%|▊         | 3/40 [00:01<00:14,  2.54it/s] 10%|█         | 4/40 [00:01<00:14,  2.57it/s] 18%|█▊        | 7/40 [00:26<02:44,  4.99s/it] 20%|██        | 8/40 [00:39<03:38,  6.81s/it] 25%|██▌       | 10/40 [00:40<02:08,  4.29s/it] 28%|██▊       | 11/40 [00:40<01:41,  3.48s/it] 30%|███       | 12/40 [00:41<01:18,  2.79s/it] 35%|███▌      | 14/40 [00:41<00:46,  1.77s/it] 38%|███▊      | 15/40 [00:42<00:37,  1.51s/it] 40%|████      | 16/40 [00:52<01:22,  3.46s/it] 52%|█████▎    | 21/40 [00:52<00:25,  1.36s/it] 55%|█████▌    | 22/40 [01:00<00:42,  2.37s/it] 60%|██████    | 24/40 [01:11<00:51,  3.22s/it] 62%|██████▎   | 25/40 [01:28<01:27,  5.80s/it] 65%|██████▌   | 26/40 [01:29<01:05,  4.71s/it] 72%|███████▎  | 29/40 [01:47<00:58,  5.29s/it] 75%|███████▌  | 30/40 [01:47<00:44,  4.42s/it] 85%|████████▌ | 34/40 [01:48<00:13,  2.23s/it] 90%|█████████ | 36/40 [02:01<00:13,  3.45s/it] 92%|█████████▎| 37/40 [02:11<00:13,  4.43s/it]100%|██████████| 40/40 [02:11<00:00,  3.28s/it]
  0%|          | 0/100 [00:00<?, ?it/s]  1%|          | 1/100 [00:26<43:45, 26.52s/it]  2%|▏         | 2/100 [00:36<27:21, 16.75s/it]  6%|▌         | 6/100 [00:37<06:12,  3.96s/it]  7%|▋         | 7/100 [00:37<04:57,  3.20s/it]  8%|▊         | 8/100 [00:38<04:01,  2.63s/it]  9%|▉         | 9/100 [00:38<03:13,  2.13s/it] 10%|█         | 10/100 [00:39<02:32,  1.69s/it] 11%|█         | 11/100 [00:39<02:01,  1.37s/it] 12%|█▏        | 12/100 [00:40<01:37,  1.11s/it] 13%|█▎        | 13/100 [01:03<10:54,  7.52s/it] 14%|█▍        | 14/100 [01:04<07:50,  5.47s/it] 16%|█▌        | 16/100 [01:04<04:20,  3.10s/it] 17%|█▋        | 17/100 [01:05<03:24,  2.47s/it] 18%|█▊        | 18/100 [01:05<02:39,  1.95s/it] 20%|██        | 20/100 [01:06<01:36,  1.20s/it] 21%|██        | 21/100 [01:06<01:22,  1.04s/it] 22%|██▏       | 22/100 [01:07<01:09,  1.12it/s] 25%|██▌       | 25/100 [01:16<02:28,  1.98s/it] 27%|██▋       | 27/100 [01:16<01:45,  1.45s/it] 28%|██▊       | 28/100 [01:30<04:27,  3.71s/it] 29%|██▉       | 29/100 [01:31<03:41,  3.12s/it] 31%|███       | 31/100 [01:31<02:21,  2.05s/it] 34%|███▍      | 34/100 [01:55<05:12,  4.73s/it] 35%|███▌      | 35/100 [01:56<04:24,  4.07s/it] 36%|███▌      | 36/100 [01:57<03:33,  3.33s/it] 39%|███▉      | 39/100 [01:57<01:54,  1.87s/it] 41%|████      | 41/100 [01:58<01:21,  1.38s/it] 44%|████▍     | 44/100 [02:14<02:46,  2.98s/it] 46%|████▌     | 46/100 [04:42<20:08, 22.38s/it] 47%|████▋     | 47/100 [04:42<16:36, 18.80s/it] 48%|████▊     | 48/100 [04:43<13:17, 15.33s/it] 49%|████▉     | 49/100 [05:08<14:53, 17.52s/it] 51%|█████     | 51/100 [05:09<08:59, 11.01s/it] 53%|█████▎    | 53/100 [05:09<05:40,  7.24s/it] 56%|█████▌    | 56/100 [05:10<03:07,  4.25s/it] 57%|█████▋    | 57/100 [05:11<02:36,  3.64s/it] 58%|█████▊    | 58/100 [05:11<02:06,  3.02s/it] 59%|█████▉    | 59/100 [05:12<01:41,  2.48s/it] 65%|██████▌   | 65/100 [05:20<01:02,  1.79s/it] 66%|██████▌   | 66/100 [05:21<00:54,  1.61s/it] 69%|██████▉   | 69/100 [05:21<00:33,  1.07s/it] 70%|███████   | 70/100 [05:22<00:29,  1.01it/s] 71%|███████   | 71/100 [05:23<00:30,  1.06s/it] 72%|███████▏  | 72/100 [05:24<00:25,  1.08it/s] 73%|███████▎  | 73/100 [05:24<00:22,  1.19it/s] 74%|███████▍  | 74/100 [05:25<00:19,  1.34it/s] 76%|███████▌  | 76/100 [05:25<00:13,  1.83it/s] 77%|███████▋  | 77/100 [05:25<00:12,  1.89it/s] 78%|███████▊  | 78/100 [05:41<01:34,  4.30s/it] 79%|███████▉  | 79/100 [05:42<01:08,  3.28s/it] 80%|████████  | 80/100 [05:42<00:50,  2.55s/it] 81%|████████  | 81/100 [05:43<00:38,  2.03s/it] 82%|████████▏ | 82/100 [05:44<00:29,  1.61s/it] 83%|████████▎ | 83/100 [05:45<00:23,  1.40s/it] 84%|████████▍ | 84/100 [05:45<00:18,  1.14s/it] 85%|████████▌ | 85/100 [05:46<00:14,  1.05it/s] 86%|████████▌ | 86/100 [05:46<00:11,  1.27it/s] 87%|████████▋ | 87/100 [05:46<00:08,  1.46it/s] 88%|████████▊ | 88/100 [05:47<00:07,  1.55it/s] 89%|████████▉ | 89/100 [05:47<00:06,  1.66it/s] 90%|█████████ | 90/100 [05:48<00:05,  1.78it/s] 91%|█████████ | 91/100 [05:48<00:04,  1.86it/s] 92%|█████████▏| 92/100 [05:49<00:04,  1.86it/s] 93%|█████████▎| 93/100 [05:49<00:03,  2.01it/s] 94%|█████████▍| 94/100 [05:50<00:02,  2.04it/s] 95%|█████████▌| 95/100 [05:50<00:02,  2.03it/s] 96%|█████████▌| 96/100 [05:51<00:01,  2.04it/s] 97%|█████████▋| 97/100 [05:51<00:01,  2.20it/s] 98%|█████████▊| 98/100 [05:52<00:00,  2.09it/s] 99%|█████████▉| 99/100 [05:52<00:00,  2.20it/s]100%|██████████| 100/100 [05:53<00:00,  2.05it/s]100%|██████████| 100/100 [05:53<00:00,  3.53s/it]
Epoch  20 -> Overall Accuracy: 93.83% mIoU : 83.98% Loss: 0.0350 Loss reg: 0.0000000000 Loss_total: 0.0350[0m
Urban : 92.37%  |  not Urban : 75.59%
[101m
Urban : 92.07%  |  not Urban : 79.00%
Validation  20 -> Overall Accuracy: 93.89% mIoU : 85.53% Loss: 0.0447 Loss reg: 0.0000000000 Loss_total: 0.0447[0m
Urban : 92.07%  |  not Urban : 79.00%


[100m
Urban : 93.26%  |  not Urban : 77.11%
Epoch  21 -> Overall Accuracy: 94.50% mIoU : 85.18% Loss: 0.0387 Loss reg: 0.0000000000 Loss_total: 0.0387[0m
Urban : 93.26%  |  not Urban : 77.11%
[101m
Urban : 93.11%  |  not Urban : 80.91%
Validation  21 -> Overall Accuracy: 94.67% mIoU : 87.01% Loss: 0.0482 Loss reg: 0.0000000000 Loss_total: 0.0482[0m
Urban : 93.11%  |  not Urban : 80.91%


[100m
Urban : 91.93%  |  not Urban : 74.36%
Epoch  22 -> Overall Accuracy: 93.46% mIoU : 83.14% Loss: 0.0398 Loss reg: 0.0000000000 Loss_total: 0.0398[0m
Urban : 91.93%  |  not Urban : 74.36%
[101m
Urban : 90.56%  |  not Urban : 76.75%
Validation  22 -> Overall Accuracy: 92.81% mIoU : 83.66% Loss: 0.0434 Loss reg: 0.0000000000 Loss_total: 0.0434[0m
Urban : 90.56%  |  not Urban : 76.75%


[100m
Urban : 91.80%  |  not Urban : 73.68%
Epoch  23 -> Overall Accuracy: 93.33% mIoU : 82.74% Loss: 0.0423 Loss reg: 0.0000000000 Loss_total: 0.0423[0m
Urban : 91.80%  |  not Urban : 73.68%
[101m
Urban : 80.22%  |  not Urban : 61.98%
Validation  23 -> Overall Accuracy: 85.04% mIoU : 71.10% Loss: 0.0563 Loss reg: 0.0000000000 Loss_total: 0.0563[0m
Urban : 80.22%  |  not Urban : 61.98%


[100m
Urban : 93.06%  |  not Urban : 77.20%
Epoch  24 -> Overall Accuracy: 94.38% mIoU : 85.13% Loss: 0.0345 Loss reg: 0.0000000000 Loss_total: 0.0345[0m
Urban : 93.06%  |  not Urban : 77.20%
[101m
Urban : 93.15%  |  not Urban : 81.64%
Validation  24 -> Overall Accuracy: 94.75% mIoU : 87.39% Loss: 0.0366 Loss reg: 0.0000000000 Loss_total: 0.0366[0m
Urban : 93.15%  |  not Urban : 81.64%


[100m
Urban : 93.65%  |  not Urban : 78.45%
Epoch  25 -> Overall Accuracy: 94.84% mIoU : 86.05% Loss: 0.0355 Loss reg: 0.0000000000 Loss_total: 0.0355[0m
Urban : 93.65%  |  not Urban : 78.45%
[101m
Urban : 89.80%  |  not Urban : 75.64%
Validation  25 -> Overall Accuracy: 92.26% mIoU : 82.72% Loss: 0.0401 Loss reg: 0.0000000000 Loss_total: 0.0401[0m
Urban : 89.80%  |  not Urban : 75.64%
[104m
Urban : 90.79%  |  not Urban : 73.24%
Test   0 -> Overall Accuracy: 92.65% mIoU : 82.02% Loss: 0.0387 Loss reg: 0.0000000000 Loss_total: 0.0387[0m
Urban : 90.79%  |  not Urban : 73.24%


[100m
Urban : 91.81%  |  not Urban : 74.15%
Epoch  26 -> Overall Accuracy: 93.37% mIoU : 82.98% Loss: 0.0382 Loss reg: 0.0000000000 Loss_total: 0.0382[0m
Urban : 91.81%  |  not Urban : 74.15%
[101m
Urban : 89.59%  |  not Urban : 75.39%
Validation  26 -> Overall Accuracy: 92.11% mIoU : 82.49% Loss: 0.0388 Loss reg: 0.0000000000 Loss_total: 0.0388[0m
Urban : 89.59%  |  not Urban : 75.39%


[100m
Urban : 94.01%  |  not Urban : 79.46%
Epoch  27 -> Overall Accuracy: 95.14% mIoU : 86.74% Loss: 0.0336 Loss reg: 0.0000000000 Loss_total: 0.0336[0m
Urban : 94.01%  |  not Urban : 79.46%
[101m
Urban : 92.80%  |  not Urban : 80.74%
Validation  27 -> Overall Accuracy: 94.47% mIoU : 86.77% Loss: 0.0389 Loss reg: 0.0000000000 Loss_total: 0.0389[0m
Urban : 92.80%  |  not Urban : 80.74%
[104m
Urban : 93.58%  |  not Urban : 78.94%
Test   1 -> Overall Accuracy: 94.82% mIoU : 86.26% Loss: 0.0378 Loss reg: 0.0000000000 Loss_total: 0.0378[0m
Urban : 93.58%  |  not Urban : 78.94%


[100m
Urban : 92.84%  |  not Urban : 76.63%
Epoch  28 -> Overall Accuracy: 94.20% mIoU : 84.74% Loss: 0.0347 Loss reg: 0.0000000000 Loss_total: 0.0347[0m
Urban : 92.84%  |  not Urban : 76.63%
[101m
Urban : 73.18%  |  not Urban : 54.63%
Validation  28 -> Overall Accuracy: 79.72% mIoU : 63.90% Loss: 0.0794 Loss reg: 0.0000000000 Loss_total: 0.0794[0m
Urban : 73.18%  |  not Urban : 54.63%


[100m
Urban : 93.61%  |  not Urban : 78.58%
Epoch  29 -> Overall Accuracy: 94.82% mIoU : 86.09% Loss: 0.0327 Loss reg: 0.0000000000 Loss_total: 0.0327[0m
Urban : 93.61%  |  not Urban : 78.58%
[101m
Urban : 93.39%  |  not Urban : 81.19%
Validation  29 -> Overall Accuracy: 94.86% mIoU : 87.29% Loss: 0.0469 Loss reg: 0.0000000000 Loss_total: 0.0469[0m
Urban : 93.39%  |  not Urban : 81.19%
[104m
Urban : 94.19%  |  not Urban : 79.68%
Test   2 -> Overall Accuracy: 95.27% mIoU : 86.93% Loss: 0.0466 Loss reg: 0.0000000000 Loss_total: 0.0466[0m
Urban : 94.19%  |  not Urban : 79.68%


[100m
Urban : 93.41%  |  not Urban : 77.90%
Epoch  30 -> Overall Accuracy: 94.65% mIoU : 85.65% Loss: 0.0346 Loss reg: 0.0000000000 Loss_total: 0.0346[0m
Urban : 93.41%  |  not Urban : 77.90%
[101m
Urban : 91.83%  |  not Urban : 79.32%
Validation  30 -> Overall Accuracy: 93.78% mIoU : 85.58% Loss: 0.0339 Loss reg: 0.0000000000 Loss_total: 0.0339[0m
Urban : 91.83%  |  not Urban : 79.32%


[100m
Urban : 92.85%  |  not Urban : 76.64%
Epoch  31 -> Overall Accuracy: 94.21% mIoU : 84.75% Loss: 0.0354 Loss reg: 0.0000000000 Loss_total: 0.0354[0m
Urban : 92.85%  |  not Urban : 76.64%
[101m
Urban : 92.84%  |  not Urban : 81.28%
Validation  31 -> Overall Accuracy: 94.54% mIoU : 87.06% Loss: 0.0325 Loss reg: 0.0000000000 Loss_total: 0.0325[0m
Urban : 92.84%  |  not Urban : 81.28%


[100m
Urban : 94.47%  |  not Urban : 80.79%
Epoch  32 -> Overall Accuracy: 95.52% mIoU : 87.63% Loss: 0.0323 Loss reg: 0.0000000000 Loss_total: 0.0323[0m
Urban : 94.47%  |  not Urban : 80.79%
[101m
Urban : 92.67%  |  not Urban : 78.69%
Validation  32 -> Overall Accuracy: 94.23% mIoU : 85.68% Loss: 0.0553 Loss reg: 0.0000000000 Loss_total: 0.0553[0m
Urban : 92.67%  |  not Urban : 78.69%


[100m
Urban : 90.89%  |  not Urban : 72.21%
Epoch  33 -> Overall Accuracy: 92.63% mIoU : 81.55% Loss: 0.0388 Loss reg: 0.0000000000 Loss_total: 0.0388[0m
Urban : 90.89%  |  not Urban : 72.21%
[101m
Urban : 89.77%  |  not Urban : 75.49%
Validation  33 -> Overall Accuracy: 92.22% mIoU : 82.63% Loss: 0.0465 Loss reg: 0.0000000000 Loss_total: 0.0465[0m
Urban : 89.77%  |  not Urban : 75.49%


[100m
Urban : 92.66%  |  not Urban : 75.70%
Epoch  34 -> Overall Accuracy: 94.03% mIoU : 84.18% Loss: 0.0411 Loss reg: 0.0000000000 Loss_total: 0.0411[0m
Urban : 92.66%  |  not Urban : 75.70%
[101m
Urban : 92.92%  |  not Urban : 81.24%
Validation  34 -> Overall Accuracy: 94.58% mIoU : 87.08% Loss: 0.0432 Loss reg: 0.0000000000 Loss_total: 0.0432[0m
Urban : 92.92%  |  not Urban : 81.24%


[100m
Urban : 92.10%  |  not Urban : 74.48%
Epoch  35 -> Overall Accuracy: 93.58% mIoU : 83.29% Loss: 0.0422 Loss reg: 0.0000000000 Loss_total: 0.0422[0m
Urban : 92.10%  |  not Urban : 74.48%
[101m
Urban : 65.10%  |  not Urban : 47.81%
Validation  35 -> Overall Accuracy: 73.55% mIoU : 56.45% Loss: 0.0920 Loss reg: 0.0000000000 Loss_total: 0.0920[0m
Urban : 65.10%  |  not Urban : 47.81%


[100m
Urban : 92.25%  |  not Urban : 75.20%
Epoch  36 -> Overall Accuracy: 93.72% mIoU : 83.72% Loss: 0.0364 Loss reg: 0.0000000000 Loss_total: 0.0364[0m
Urban : 92.25%  |  not Urban : 75.20%
[101m
Urban : 93.10%  |  not Urban : 81.39%
Validation  36 -> Overall Accuracy: 94.70% mIoU : 87.24% Loss: 0.0402 Loss reg: 0.0000000000 Loss_total: 0.0402[0m
Urban : 93.10%  |  not Urban : 81.39%


[100m
Urban : 92.11%  |  not Urban : 74.68%
Epoch  37 -> Overall Accuracy: 93.60% mIoU : 83.40% Loss: 0.0381 Loss reg: 0.0000000000 Loss_total: 0.0381[0m
Urban : 92.11%  |  not Urban : 74.68%
[101m
Urban : 91.54%  |  not Urban : 78.79%
Validation  37 -> Overall Accuracy: 93.56% mIoU : 85.17% Loss: 0.0349 Loss reg: 0.0000000000 Loss_total: 0.0349[0m
Urban : 91.54%  |  not Urban : 78.79%
[104m
Urban : 94.19%  |  not Urban : 79.68%
Test   3 -> Overall Accuracy: 95.27% mIoU : 86.93% Loss: 0.0466 Loss reg: 0.0000000000 Loss_total: 0.0466[0m
Urban : 94.19%  |  not Urban : 79.68%


Fin
